﻿Log file open, 08/12/19 23:10:24
LogWindows: Failed to load 'aqProf.dll' (GetLastError=1117)
LogWindows: File 'aqProf.dll' does not exist
LogWindows: Failed to load 'VtuneApi.dll' (GetLastError=1117)
LogWindows: File 'VtuneApi.dll' does not exist
LogWindows: Failed to load 'VtuneApi32e.dll' (GetLastError=1117)
LogWindows: File 'VtuneApi32e.dll' does not exist
LogConsoleResponse: Display: Failed to find resolution value strings in scalability ini. Falling back to default.
LogInit: Display: Running engine for game: TestProjectArtCraft
LogPakFile: Registered encryption key '00000000000000000000000000000000': 0 pak files mounted, 0 remain pending
LogPlatformFile: Not using cached read wrapper
LogTaskGraph: Started task graph with 5 named threads and 23 total threads with 3 sets of task threads.
LogStats: Stats thread started at 0.352776
LogD3D11RHI: Loaded GFSDK_Aftermath_Lib.x64.dll
LogICUInternationalization: ICU TimeZone Detection - Raw Offset: +2:00, Platform Override: ''
LogPluginManager: Mounting plugin Paper2D
LogPluginManager: Mounting plugin AISupport
LogPluginManager: Mounting plugin LightPropagationVolume
LogPluginManager: Mounting plugin ActorLayerUtilities
LogPluginManager: Mounting plugin AnimationSharing
LogPluginManager: Mounting plugin CLionSourceCodeAccess
LogPluginManager: Mounting plugin CodeLiteSourceCodeAccess
LogPluginManager: Mounting plugin GitSourceControl
LogPluginManager: Mounting plugin KDevelopSourceCodeAccess
LogPluginManager: Mounting plugin NullSourceCodeAccess
LogPluginManager: Mounting plugin PerforceSourceControl
LogPluginManager: Mounting plugin SubversionSourceControl
LogPluginManager: Mounting plugin UObjectPlugin
LogPluginManager: Mounting plugin VisualStudioCodeSourceCodeAccess
LogPluginManager: Mounting plugin VisualStudioSourceCodeAccess
LogPluginManager: Mounting plugin XCodeSourceCodeAccess
LogPluginManager: Mounting plugin AssetManagerEditor
LogPluginManager: Mounting plugin CryptoKeys
LogPluginManager: Mounting plugin DataValidation
LogPluginManager: Mounting plugin FacialAnimation
LogPluginManager: Mounting plugin GameplayTagsEditor
LogPluginManager: Mounting plugin MacGraphicsSwitching
LogPluginManager: Mounting plugin MaterialAnalyzer
LogPluginManager: Mounting plugin MobileLauncherProfileWizard
LogPluginManager: Mounting plugin PluginBrowser
LogPluginManager: Mounting plugin SpeedTreeImporter
LogPluginManager: Mounting plugin DatasmithContent
LogPluginManager: Mounting plugin VariantManagerContent
LogPluginManager: Mounting plugin AlembicImporter
LogPluginManager: Mounting plugin AppleImageUtils
LogPluginManager: Mounting plugin AppleVision
LogPluginManager: Mounting plugin BackChannel
LogPluginManager: Mounting plugin CharacterAI
LogPluginManager: Mounting plugin GeometryCache
LogPluginManager: Mounting plugin HTML5Networking
LogPluginManager: Mounting plugin ProxyLODPlugin
LogPluginManager: Mounting plugin SkeletalReduction
LogPluginManager: Mounting plugin MagicLeap
LogPluginManager: Mounting plugin MagicLeapMedia
LogPluginManager: Mounting plugin AndroidMedia
LogPluginManager: Mounting plugin AvfMedia
LogPluginManager: Mounting plugin ImgMedia
LogPluginManager: Mounting plugin LinearTimecode
LogPluginManager: Mounting plugin MediaCompositing
LogPluginManager: Mounting plugin MediaPlayerEditor
LogPluginManager: Mounting plugin WebMMedia
LogPluginManager: Mounting plugin WmfMedia
LogPluginManager: Mounting plugin TcpMessaging
LogPluginManager: Mounting plugin UdpMessaging
LogPluginManager: Mounting plugin ActorSequence
LogPluginManager: Mounting plugin LevelSequenceEditor
LogPluginManager: Mounting plugin MatineeToLevelSequence
LogPluginManager: Mounting plugin NetcodeUnitTest
LogPluginManager: Mounting plugin NUTUnrealEngine4
LogPluginManager: Mounting plugin OnlineSubsystemGooglePlay
LogPluginManager: Mounting plugin OnlineSubsystemIOS
LogPluginManager: Mounting plugin OnlineSubsystem
LogPluginManager: Mounting plugin OnlineSubsystemNull
LogPluginManager: Mounting plugin OnlineSubsystemUtils
LogPluginManager: Mounting plugin LauncherChunkInstaller
LogPluginManager: Mounting plugin AndroidDeviceProfileSelector
LogPluginManager: Mounting plugin AndroidMoviePlayer
LogPluginManager: Mounting plugin AndroidPermission
LogPluginManager: Mounting plugin AppleMoviePlayer
LogPluginManager: Mounting plugin ArchVisCharacter
LogPluginManager: Mounting plugin AudioCapture
LogPluginManager: Mounting plugin CableComponent
LogPluginManager: Mounting plugin CustomMeshComponent
LogPluginManager: Mounting plugin EditableMesh
LogPluginManager: Mounting plugin ExampleDeviceProfileSelector
LogPluginManager: Mounting plugin Firebase
LogPluginManager: Mounting plugin GoogleCloudMessaging
LogPluginManager: Mounting plugin IOSDeviceProfileSelector
LogPluginManager: Mounting plugin LinuxDeviceProfileSelector
LogPluginManager: Mounting plugin LocationServicesBPLibrary
LogPluginManager: Mounting plugin MobilePatchingUtils
LogPluginManager: Mounting plugin OculusVR
LogPluginManager: Mounting plugin PhysXVehicles
LogPluginManager: Mounting plugin ProceduralMeshComponent
LogPluginManager: Mounting plugin RuntimePhysXCooking
LogPluginManager: Mounting plugin SignificanceManager
LogPluginManager: Mounting plugin SteamVR
LogPluginManager: Mounting plugin WebMMoviePlayer
LogPluginManager: Mounting plugin WindowsMoviePlayer
LogInit: Using libcurl 7.55.1-DEV
LogInit:  - built for x86_64-pc-win32
LogInit:  - supports SSL with OpenSSL/1.1.1
LogInit:  - supports HTTP deflate (compression) using libz 1.2.8
LogInit:  - other features:
LogInit:      CURL_VERSION_SSL
LogInit:      CURL_VERSION_LIBZ
LogInit:      CURL_VERSION_IPV6
LogInit:      CURL_VERSION_ASYNCHDNS
LogInit:      CURL_VERSION_LARGEFILE
LogInit:      CURL_VERSION_IDN
LogInit:  CurlRequestOptions (configurable via config and command line):
LogInit:  - bVerifyPeer = true  - Libcurl will verify peer certificate
LogInit:  - bUseHttpProxy = false  - Libcurl will NOT use HTTP proxy
LogInit:  - bDontReuseConnections = false  - Libcurl will reuse connections
LogInit:  - MaxHostConnections = 16  - Libcurl will limit the number of connections to a host
LogInit:  - LocalHostAddr = Default
LogInit:  - BufferSize = 65536
LogInit: WinSock: version 1.1 (2.2), MaxSocks=32767, MaxUdp=65467
LogInit: Build: ++UE4+Release-4.22-CL-7053642
LogInit: Engine Version: 4.22.3-7053642+++UE4+Release-4.22
LogInit: Compatible Engine Version: 4.22.0-5660361+++UE4+Release-4.22
LogInit: Net CL: 5660361
LogInit: OS: Windows 10 (Release 1803) (), CPU: AMD FX(tm)-8300 Eight-Core Processor           , GPU: AMD Radeon (TM) R7 370 Series Graphics
LogInit: Compiled (64-bit): Jun 18 2019 03:09:11
LogInit: Compiled with Visual C++: 19.16.27025.01
LogInit: Build Configuration: Development
LogInit: Branch Name: ++UE4+Release-4.22
LogInit: Command Line: 
LogInit: Base Directory: I:/UE/UE_4.22/Engine/Binaries/Win64/
LogInit: Installed Engine Build: 1
LogDevObjectVersion: Number of dev versions registered: 23
LogDevObjectVersion:   Dev-Blueprints (B0D832E4-1F89-4F0D-ACCF-7EB736FD4AA2): 10
LogDevObjectVersion:   Dev-Build (E1C64328-A22C-4D53-A36C-8E866417BD8C): 0
LogDevObjectVersion:   Dev-Core (375EC13C-06E4-48FB-B500-84F0262A717E): 3
LogDevObjectVersion:   Dev-Editor (E4B068ED-F494-42E9-A231-DA0B2E46BB41): 30
LogDevObjectVersion:   Dev-Framework (CFFC743F-43B0-4480-9391-14DF171D2073): 35
LogDevObjectVersion:   Dev-Mobile (B02B49B5-BB20-44E9-A304-32B752E40360): 2
LogDevObjectVersion:   Dev-Networking (A4E4105C-59A1-49B5-A7C5-40C4547EDFEE): 0
LogDevObjectVersion:   Dev-Online (39C831C9-5AE6-47DC-9A44-9C173E1C8E7C): 0
LogDevObjectVersion:   Dev-Physics (78F01B33-EBEA-4F98-B9B4-84EACCB95AA2): 0
LogDevObjectVersion:   Dev-Platform (6631380F-2D4D-43E0-8009-CF276956A95A): 0
LogDevObjectVersion:   Dev-Rendering (12F88B9F-8875-4AFC-A67C-D90C383ABD29): 28
LogDevObjectVersion:   Dev-Sequencer (7B5AE74C-D270-4C10-A958-57980B212A5A): 11
LogDevObjectVersion:   Dev-VR (D7296918-1DD6-4BDD-9DE2-64A83CC13884): 2
LogDevObjectVersion:   Dev-LoadTimes (C2A15278-BFE7-4AFE-6C17-90FF531DF755): 1
LogDevObjectVersion:   Private-Geometry (6EACA3D4-40EC-4CC1-B786-8BED09428FC5): 3
LogDevObjectVersion:   Dev-AnimPhys (29E575DD-E0A3-4627-9D10-D276232CDCEA): 17
LogDevObjectVersion:   Dev-Anim (AF43A65D-7FD3-4947-9873-3E8ED9C1BB05): 2
LogDevObjectVersion:   Dev-ReflectionCapture (6B266CEC-1EC7-4B8F-A30B-E4D90942FC07): 1
LogDevObjectVersion:   Dev-Automation (0DF73D61-A23F-47EA-B727-89E90C41499A): 1
LogDevObjectVersion:   FortniteMain (601D1886-AC64-4F84-AA16-D3DE0DEAC7D6): 25
LogDevObjectVersion:   Dev-Enterprise (9DFFBCD6-494F-0158-E221-12823C92A888): 6
LogDevObjectVersion:   Dev-Niagara (F2AED0AC-9AFE-416F-8664-AA7FFA26D6FC): 1
LogDevObjectVersion:   Dev-Destruction (174F1F0B-B4C6-45A5-B13F-2EE8D0FB917D): 2
LogInit: Presizing for max 16777216 objects, including 0 objects not considered by GC, pre-allocating 0 bytes for permanent pool.
LogInit: Object subsystem initialized
LogConfig: Setting CVar [[con.DebugEarlyDefault:1]]
LogConfig: Setting CVar [[r.setres:1280x720]]
[2019.08.12-20.10.25:085][  0]LogConfig: Setting CVar [[r.VSync:0]]
[2019.08.12-20.10.25:085][  0]LogConfig: Setting CVar [[r.RHICmdBypass:0]]
[2019.08.12-20.10.25:085][  0]LogConfig: Applying CVar settings from Section [/Script/Engine.RendererSettings] File [G:/Repo_2/TestProjectArtCraft/Saved/Config/Windows/Engine.ini]
[2019.08.12-20.10.25:085][  0]LogConfig: Setting CVar [[r.GPUCrashDebugging:0]]
[2019.08.12-20.10.25:085][  0]LogConfig: Setting CVar [[r.DefaultFeature.AutoExposure.ExtendDefaultLuminanceRange:1]]
[2019.08.12-20.10.25:085][  0]LogConfig: Applying CVar settings from Section [/Script/Engine.RendererOverrideSettings] File [G:/Repo_2/TestProjectArtCraft/Saved/Config/Windows/Engine.ini]
[2019.08.12-20.10.25:085][  0]LogConfig: Applying CVar settings from Section [/Script/Engine.StreamingSettings] File [G:/Repo_2/TestProjectArtCraft/Saved/Config/Windows/Engine.ini]
[2019.08.12-20.10.25:085][  0]LogConfig: Setting CVar [[s.MinBulkDataSizeForAsyncLoading:131072]]
[2019.08.12-20.10.25:085][  0]LogConfig: Setting CVar [[s.AsyncLoadingThreadEnabled:0]]
[2019.08.12-20.10.25:085][  0]LogConfig: Setting CVar [[s.EventDrivenLoaderEnabled:1]]
[2019.08.12-20.10.25:085][  0]LogConfig: Setting CVar [[s.WarnIfTimeLimitExceeded:0]]
[2019.08.12-20.10.25:085][  0]LogConfig: Setting CVar [[s.TimeLimitExceededMultiplier:1.5]]
[2019.08.12-20.10.25:085][  0]LogConfig: Setting CVar [[s.TimeLimitExceededMinTime:0.005]]
[2019.08.12-20.10.25:085][  0]LogConfig: Setting CVar [[s.UseBackgroundLevelStreaming:1]]
[2019.08.12-20.10.25:085][  0]LogConfig: Setting CVar [[s.PriorityAsyncLoadingExtraTime:15.0]]
[2019.08.12-20.10.25:085][  0]LogConfig: Setting CVar [[s.LevelStreamingActorsUpdateTimeLimit:5.0]]
[2019.08.12-20.10.25:085][  0]LogConfig: Setting CVar [[s.PriorityLevelStreamingActorsUpdateExtraTime:5.0]]
[2019.08.12-20.10.25:085][  0]LogConfig: Setting CVar [[s.LevelStreamingComponentsRegistrationGranularity:10]]
[2019.08.12-20.10.25:085][  0]LogConfig: Setting CVar [[s.UnregisterComponentsTimeLimit:1.0]]
[2019.08.12-20.10.25:085][  0]LogConfig: Setting CVar [[s.LevelStreamingComponentsUnregistrationGranularity:5]]
[2019.08.12-20.10.25:086][  0]LogConfig: Applying CVar settings from Section [/Script/Engine.GarbageCollectionSettings] File [G:/Repo_2/TestProjectArtCraft/Saved/Config/Windows/Engine.ini]
[2019.08.12-20.10.25:086][  0]LogConfig: Setting CVar [[gc.MaxObjectsNotConsideredByGC:1]]
[2019.08.12-20.10.25:086][  0]LogConfig: Setting CVar [[gc.SizeOfPermanentObjectPool:0]]
[2019.08.12-20.10.25:086][  0]LogConfig: Setting CVar [[gc.FlushStreamingOnGC:0]]
[2019.08.12-20.10.25:086][  0]LogConfig: Setting CVar [[gc.NumRetriesBeforeForcingGC:10]]
[2019.08.12-20.10.25:086][  0]LogConfig: Setting CVar [[gc.AllowParallelGC:1]]
[2019.08.12-20.10.25:086][  0]LogConfig: Setting CVar [[gc.TimeBetweenPurgingPendingKillObjects:61.1]]
[2019.08.12-20.10.25:086][  0]LogConfig: Setting CVar [[gc.MaxObjectsInEditor:16777216]]
[2019.08.12-20.10.25:086][  0]LogConfig: Setting CVar [[gc.IncrementalBeginDestroyEnabled:1]]
[2019.08.12-20.10.25:086][  0]LogConfig: Setting CVar [[gc.CreateGCClusters:1]]
[2019.08.12-20.10.25:086][  0]LogConfig: Setting CVar [[gc.MinGCClusterSize:5]]
[2019.08.12-20.10.25:086][  0]LogConfig: Setting CVar [[gc.ActorClusteringEnabled:0]]
[2019.08.12-20.10.25:086][  0]LogConfig: Setting CVar [[gc.BlueprintClusteringEnabled:0]]
[2019.08.12-20.10.25:086][  0]LogConfig: Setting CVar [[gc.UseDisregardForGCOnDedicatedServers:0]]
[2019.08.12-20.10.25:086][  0]LogConfig: Applying CVar settings from Section [/Script/Engine.NetworkSettings] File [G:/Repo_2/TestProjectArtCraft/Saved/Config/Windows/Engine.ini]
[2019.08.12-20.10.25:086][  0]LogConfig: Applying CVar settings from Section [/Script/UnrealEd.CookerSettings] File [G:/Repo_2/TestProjectArtCraft/Saved/Config/Windows/Engine.ini]
[2019.08.12-20.10.25:118][  0]LogConfig: Applying CVar settings from Section [ViewDistanceQuality@3] File [G:/Repo_2/TestProjectArtCraft/Saved/Config/Windows/Scalability.ini]
[2019.08.12-20.10.25:118][  0]LogConfig: Setting CVar [[r.SkeletalMeshLODBias:0]]
[2019.08.12-20.10.25:118][  0]LogConfig: Setting CVar [[r.ViewDistanceScale:1.0]]
[2019.08.12-20.10.25:118][  0]LogConfig: Applying CVar settings from Section [AntiAliasingQuality@3] File [G:/Repo_2/TestProjectArtCraft/Saved/Config/Windows/Scalability.ini]
[2019.08.12-20.10.25:118][  0]LogConfig: Setting CVar [[r.PostProcessAAQuality:4]]
[2019.08.12-20.10.25:118][  0]LogConfig: Applying CVar settings from Section [ShadowQuality@3] File [G:/Repo_2/TestProjectArtCraft/Saved/Config/Windows/Scalability.ini]
[2019.08.12-20.10.25:118][  0]LogConfig: Setting CVar [[r.LightFunctionQuality:1]]
[2019.08.12-20.10.25:118][  0]LogConfig: Setting CVar [[r.ShadowQuality:5]]
[2019.08.12-20.10.25:118][  0]LogConfig: Setting CVar [[r.Shadow.CSM.MaxCascades:10]]
[2019.08.12-20.10.25:118][  0]LogConfig: Setting CVar [[r.Shadow.MaxResolution:2048]]
[2019.08.12-20.10.25:118][  0]LogConfig: Setting CVar [[r.Shadow.MaxCSMResolution:2048]]
[2019.08.12-20.10.25:118][  0]LogConfig: Setting CVar [[r.Shadow.RadiusThreshold:0.01]]
[2019.08.12-20.10.25:118][  0]LogConfig: Setting CVar [[r.Shadow.DistanceScale:1.0]]
[2019.08.12-20.10.25:119][  0]LogConfig: Setting CVar [[r.Shadow.CSM.TransitionScale:1.0]]
[2019.08.12-20.10.25:119][  0]LogConfig: Setting CVar [[r.Shadow.PreShadowResolutionFactor:1.0]]
[2019.08.12-20.10.25:119][  0]LogConfig: Setting CVar [[r.DistanceFieldShadowing:1]]
[2019.08.12-20.10.25:119][  0]LogConfig: Setting CVar [[r.DistanceFieldAO:1]]
[2019.08.12-20.10.25:119][  0]LogConfig: Setting CVar [[r.AOQuality:2]]
[2019.08.12-20.10.25:119][  0]LogConfig: Setting CVar [[r.VolumetricFog:1]]
[2019.08.12-20.10.25:119][  0]LogConfig: Setting CVar [[r.VolumetricFog.GridPixelSize:8]]
[2019.08.12-20.10.25:119][  0]LogConfig: Setting CVar [[r.VolumetricFog.GridSizeZ:128]]
[2019.08.12-20.10.25:119][  0]LogConfig: Setting CVar [[r.VolumetricFog.HistoryMissSupersampleCount:4]]
[2019.08.12-20.10.25:119][  0]LogConfig: Setting CVar [[r.LightMaxDrawDistanceScale:1]]
[2019.08.12-20.10.25:119][  0]LogConfig: Setting CVar [[r.CapsuleShadows:1]]
[2019.08.12-20.10.25:119][  0]LogConfig: Applying CVar settings from Section [PostProcessQuality@3] File [G:/Repo_2/TestProjectArtCraft/Saved/Config/Windows/Scalability.ini]
[2019.08.12-20.10.25:119][  0]LogConfig: Setting CVar [[r.MotionBlurQuality:4]]
[2019.08.12-20.10.25:119][  0]LogConfig: Setting CVar [[r.AmbientOcclusionMipLevelFactor:0.4]]
[2019.08.12-20.10.25:119][  0]LogConfig: Setting CVar [[r.AmbientOcclusionMaxQuality:100]]
[2019.08.12-20.10.25:119][  0]LogConfig: Setting CVar [[r.AmbientOcclusionLevels:-1]]
[2019.08.12-20.10.25:119][  0]LogConfig: Setting CVar [[r.AmbientOcclusionRadiusScale:1.0]]
[2019.08.12-20.10.25:119][  0]LogConfig: Setting CVar [[r.DepthOfFieldQuality:2]]
[2019.08.12-20.10.25:119][  0]LogConfig: Setting CVar [[r.RenderTargetPoolMin:400]]
[2019.08.12-20.10.25:119][  0]LogConfig: Setting CVar [[r.LensFlareQuality:2]]
[2019.08.12-20.10.25:119][  0]LogConfig: Setting CVar [[r.SceneColorFringeQuality:1]]
[2019.08.12-20.10.25:119][  0]LogConfig: Setting CVar [[r.EyeAdaptationQuality:2]]
[2019.08.12-20.10.25:119][  0]LogConfig: Setting CVar [[r.BloomQuality:5]]
[2019.08.12-20.10.25:119][  0]LogConfig: Setting CVar [[r.FastBlurThreshold:100]]
[2019.08.12-20.10.25:119][  0]LogConfig: Setting CVar [[r.Upscale.Quality:3]]
[2019.08.12-20.10.25:119][  0]LogConfig: Setting CVar [[r.Tonemapper.GrainQuantization:1]]
[2019.08.12-20.10.25:119][  0]LogConfig: Setting CVar [[r.LightShaftQuality:1]]
[2019.08.12-20.10.25:119][  0]LogConfig: Setting CVar [[r.Filter.SizeScale:1]]
[2019.08.12-20.10.25:119][  0]LogConfig: Setting CVar [[r.Tonemapper.Quality:5]]
[2019.08.12-20.10.25:119][  0]LogConfig: Setting CVar [[r.DOF.Gather.AccumulatorQuality:1        ; higher gathering accumulator quality]]
[2019.08.12-20.10.25:119][  0]LogConfig: Setting CVar [[r.DOF.Gather.PostfilterMethod:1          ; Median3x3 postfilering method]]
[2019.08.12-20.10.25:119][  0]LogConfig: Setting CVar [[r.DOF.Gather.EnableBokehSettings:0       ; no bokeh simulation when gathering]]
[2019.08.12-20.10.25:119][  0]LogConfig: Setting CVar [[r.DOF.Gather.RingCount:4                 ; medium number of samples when gathering]]
[2019.08.12-20.10.25:119][  0]LogConfig: Setting CVar [[r.DOF.Scatter.ForegroundCompositing:1    ; additive foreground scattering]]
[2019.08.12-20.10.25:119][  0]LogConfig: Setting CVar [[r.DOF.Scatter.BackgroundCompositing:2    ; additive background scattering]]
[2019.08.12-20.10.25:119][  0]LogConfig: Setting CVar [[r.DOF.Scatter.EnableBokehSettings:1      ; bokeh simulation when scattering]]
[2019.08.12-20.10.25:119][  0]LogConfig: Setting CVar [[r.DOF.Scatter.MaxSpriteRatio:0.1         ; only a maximum of 10% of scattered bokeh]]
[2019.08.12-20.10.25:120][  0]LogConfig: Setting CVar [[r.DOF.Recombine.Quality:1                ; cheap slight out of focus]]
[2019.08.12-20.10.25:120][  0]LogConfig: Setting CVar [[r.DOF.Recombine.EnableBokehSettings:0    ; no bokeh simulation on slight out of focus]]
[2019.08.12-20.10.25:120][  0]LogConfig: Setting CVar [[r.DOF.TemporalAAQuality:1                ; more stable temporal accumulation]]
[2019.08.12-20.10.25:120][  0]LogConfig: Setting CVar [[r.DOF.Kernel.MaxForegroundRadius:0.025]]
[2019.08.12-20.10.25:120][  0]LogConfig: Setting CVar [[r.DOF.Kernel.MaxBackgroundRadius:0.025]]
[2019.08.12-20.10.25:120][  0]LogConfig: Applying CVar settings from Section [TextureQuality@3] File [G:/Repo_2/TestProjectArtCraft/Saved/Config/Windows/Scalability.ini]
[2019.08.12-20.10.25:120][  0]LogConfig: Setting CVar [[r.Streaming.MipBias:0]]
[2019.08.12-20.10.25:120][  0]LogConfig: Setting CVar [[r.Streaming.AmortizeCPUToGPUCopy:0]]
[2019.08.12-20.10.25:120][  0]LogConfig: Setting CVar [[r.Streaming.MaxNumTexturesToStreamPerFrame:0]]
[2019.08.12-20.10.25:120][  0]LogConfig: Setting CVar [[r.Streaming.Boost:1]]
[2019.08.12-20.10.25:120][  0]LogConfig: Setting CVar [[r.MaxAnisotropy:8]]
[2019.08.12-20.10.25:120][  0]LogConfig: Setting CVar [[r.Streaming.LimitPoolSizeToVRAM:0]]
[2019.08.12-20.10.25:120][  0]LogConfig: Setting CVar [[r.Streaming.PoolSize:1000]]
[2019.08.12-20.10.25:120][  0]LogConfig: Setting CVar [[r.Streaming.MaxEffectiveScreenSize:0]]
[2019.08.12-20.10.25:120][  0]LogConfig: Applying CVar settings from Section [EffectsQuality@3] File [G:/Repo_2/TestProjectArtCraft/Saved/Config/Windows/Scalability.ini]
[2019.08.12-20.10.25:120][  0]LogConfig: Setting CVar [[r.TranslucencyLightingVolumeDim:64]]
[2019.08.12-20.10.25:120][  0]LogConfig: Setting CVar [[r.RefractionQuality:2]]
[2019.08.12-20.10.25:120][  0]LogConfig: Setting CVar [[r.SSR.Quality:3]]
[2019.08.12-20.10.25:120][  0]LogConfig: Setting CVar [[r.SceneColorFormat:4]]
[2019.08.12-20.10.25:120][  0]LogConfig: Setting CVar [[r.DetailMode:2]]
[2019.08.12-20.10.25:120][  0]LogConfig: Setting CVar [[r.TranslucencyVolumeBlur:1]]
[2019.08.12-20.10.25:120][  0]LogConfig: Setting CVar [[r.MaterialQualityLevel:1 ; High quality]]
[2019.08.12-20.10.25:120][  0]LogConfig: Setting CVar [[r.SSS.Scale:1]]
[2019.08.12-20.10.25:120][  0]LogConfig: Setting CVar [[r.SSS.SampleSet:2]]
[2019.08.12-20.10.25:120][  0]LogConfig: Setting CVar [[r.SSS.Quality:1]]
[2019.08.12-20.10.25:120][  0]LogConfig: Setting CVar [[r.SSS.HalfRes:1]]
[2019.08.12-20.10.25:120][  0]LogConfig: Setting CVar [[r.EmitterSpawnRateScale:1.0]]
[2019.08.12-20.10.25:120][  0]LogConfig: Setting CVar [[r.ParticleLightQuality:2]]
[2019.08.12-20.10.25:120][  0]LogConfig: Applying CVar settings from Section [FoliageQuality@3] File [G:/Repo_2/TestProjectArtCraft/Saved/Config/Windows/Scalability.ini]
[2019.08.12-20.10.25:120][  0]LogConfig: Setting CVar [[foliage.DensityScale:1.0]]
[2019.08.12-20.10.25:120][  0]LogConfig: Setting CVar [[grass.DensityScale:1.0]]
[2019.08.12-20.10.25:120][  0]LogInit: Selected Device Profile: [Windows]
[2019.08.12-20.10.25:120][  0]LogInit: Applying CVar settings loaded from the selected device profile: [Windows]
[2019.08.12-20.10.25:144][  0]LogHAL: Display: Platform has ~ 16 GB [17125629952 / 17179869184 / 16], which maps to Larger [LargestMinGB=32, LargerMinGB=12, DefaultMinGB=8, SmallerMinGB=6, SmallestMinGB=0)
[2019.08.12-20.10.25:144][  0]LogConfig: Setting CVar [[r.Vulkan.UseRealUBs:0		; Required until we fix HLR fall-out]]
[2019.08.12-20.10.25:144][  0]LogInit: Going up to parent DeviceProfile []
[2019.08.12-20.10.25:144][  0]LogConfig: Applying CVar settings from Section [ViewDistanceQuality@3] File [G:/Repo_2/TestProjectArtCraft/Saved/Config/Windows/Scalability.ini]
[2019.08.12-20.10.25:144][  0]LogConfig: Setting CVar [[r.SkeletalMeshLODBias:0]]
[2019.08.12-20.10.25:144][  0]LogConfig: Setting CVar [[r.ViewDistanceScale:1.0]]
[2019.08.12-20.10.25:144][  0]LogConfig: Applying CVar settings from Section [AntiAliasingQuality@3] File [G:/Repo_2/TestProjectArtCraft/Saved/Config/Windows/Scalability.ini]
[2019.08.12-20.10.25:144][  0]LogConfig: Setting CVar [[r.PostProcessAAQuality:4]]
[2019.08.12-20.10.25:144][  0]LogConfig: Applying CVar settings from Section [ShadowQuality@3] File [G:/Repo_2/TestProjectArtCraft/Saved/Config/Windows/Scalability.ini]
[2019.08.12-20.10.25:144][  0]LogConfig: Setting CVar [[r.LightFunctionQuality:1]]
[2019.08.12-20.10.25:144][  0]LogConfig: Setting CVar [[r.ShadowQuality:5]]
[2019.08.12-20.10.25:144][  0]LogConfig: Setting CVar [[r.Shadow.CSM.MaxCascades:10]]
[2019.08.12-20.10.25:144][  0]LogConfig: Setting CVar [[r.Shadow.MaxResolution:2048]]
[2019.08.12-20.10.25:144][  0]LogConfig: Setting CVar [[r.Shadow.MaxCSMResolution:2048]]
[2019.08.12-20.10.25:144][  0]LogConfig: Setting CVar [[r.Shadow.RadiusThreshold:0.01]]
[2019.08.12-20.10.25:145][  0]LogConfig: Setting CVar [[r.Shadow.DistanceScale:1.0]]
[2019.08.12-20.10.25:145][  0]LogConfig: Setting CVar [[r.Shadow.CSM.TransitionScale:1.0]]
[2019.08.12-20.10.25:145][  0]LogConfig: Setting CVar [[r.Shadow.PreShadowResolutionFactor:1.0]]
[2019.08.12-20.10.25:145][  0]LogConfig: Setting CVar [[r.DistanceFieldShadowing:1]]
[2019.08.12-20.10.25:145][  0]LogConfig: Setting CVar [[r.DistanceFieldAO:1]]
[2019.08.12-20.10.25:145][  0]LogConfig: Setting CVar [[r.AOQuality:2]]
[2019.08.12-20.10.25:145][  0]LogConfig: Setting CVar [[r.VolumetricFog:1]]
[2019.08.12-20.10.25:145][  0]LogConfig: Setting CVar [[r.VolumetricFog.GridPixelSize:8]]
[2019.08.12-20.10.25:145][  0]LogConfig: Setting CVar [[r.VolumetricFog.GridSizeZ:128]]
[2019.08.12-20.10.25:145][  0]LogConfig: Setting CVar [[r.VolumetricFog.HistoryMissSupersampleCount:4]]
[2019.08.12-20.10.25:145][  0]LogConfig: Setting CVar [[r.LightMaxDrawDistanceScale:1]]
[2019.08.12-20.10.25:145][  0]LogConfig: Setting CVar [[r.CapsuleShadows:1]]
[2019.08.12-20.10.25:145][  0]LogConfig: Applying CVar settings from Section [PostProcessQuality@3] File [G:/Repo_2/TestProjectArtCraft/Saved/Config/Windows/Scalability.ini]
[2019.08.12-20.10.25:145][  0]LogConfig: Setting CVar [[r.MotionBlurQuality:4]]
[2019.08.12-20.10.25:145][  0]LogConfig: Setting CVar [[r.AmbientOcclusionMipLevelFactor:0.4]]
[2019.08.12-20.10.25:145][  0]LogConfig: Setting CVar [[r.AmbientOcclusionMaxQuality:100]]
[2019.08.12-20.10.25:145][  0]LogConfig: Setting CVar [[r.AmbientOcclusionLevels:-1]]
[2019.08.12-20.10.25:145][  0]LogConfig: Setting CVar [[r.AmbientOcclusionRadiusScale:1.0]]
[2019.08.12-20.10.25:145][  0]LogConfig: Setting CVar [[r.DepthOfFieldQuality:2]]
[2019.08.12-20.10.25:145][  0]LogConfig: Setting CVar [[r.RenderTargetPoolMin:400]]
[2019.08.12-20.10.25:145][  0]LogConfig: Setting CVar [[r.LensFlareQuality:2]]
[2019.08.12-20.10.25:145][  0]LogConfig: Setting CVar [[r.SceneColorFringeQuality:1]]
[2019.08.12-20.10.25:145][  0]LogConfig: Setting CVar [[r.EyeAdaptationQuality:2]]
[2019.08.12-20.10.25:145][  0]LogConfig: Setting CVar [[r.BloomQuality:5]]
[2019.08.12-20.10.25:145][  0]LogConfig: Setting CVar [[r.FastBlurThreshold:100]]
[2019.08.12-20.10.25:145][  0]LogConfig: Setting CVar [[r.Upscale.Quality:3]]
[2019.08.12-20.10.25:145][  0]LogConfig: Setting CVar [[r.Tonemapper.GrainQuantization:1]]
[2019.08.12-20.10.25:145][  0]LogConfig: Setting CVar [[r.LightShaftQuality:1]]
[2019.08.12-20.10.25:145][  0]LogConfig: Setting CVar [[r.Filter.SizeScale:1]]
[2019.08.12-20.10.25:145][  0]LogConfig: Setting CVar [[r.Tonemapper.Quality:5]]
[2019.08.12-20.10.25:145][  0]LogConfig: Setting CVar [[r.DOF.Gather.AccumulatorQuality:1        ; higher gathering accumulator quality]]
[2019.08.12-20.10.25:145][  0]LogConfig: Setting CVar [[r.DOF.Gather.PostfilterMethod:1          ; Median3x3 postfilering method]]
[2019.08.12-20.10.25:145][  0]LogConfig: Setting CVar [[r.DOF.Gather.EnableBokehSettings:0       ; no bokeh simulation when gathering]]
[2019.08.12-20.10.25:145][  0]LogConfig: Setting CVar [[r.DOF.Gather.RingCount:4                 ; medium number of samples when gathering]]
[2019.08.12-20.10.25:145][  0]LogConfig: Setting CVar [[r.DOF.Scatter.ForegroundCompositing:1    ; additive foreground scattering]]
[2019.08.12-20.10.25:145][  0]LogConfig: Setting CVar [[r.DOF.Scatter.BackgroundCompositing:2    ; additive background scattering]]
[2019.08.12-20.10.25:145][  0]LogConfig: Setting CVar [[r.DOF.Scatter.EnableBokehSettings:1      ; bokeh simulation when scattering]]
[2019.08.12-20.10.25:145][  0]LogConfig: Setting CVar [[r.DOF.Scatter.MaxSpriteRatio:0.1         ; only a maximum of 10% of scattered bokeh]]
[2019.08.12-20.10.25:145][  0]LogConfig: Setting CVar [[r.DOF.Recombine.Quality:1                ; cheap slight out of focus]]
[2019.08.12-20.10.25:145][  0]LogConfig: Setting CVar [[r.DOF.Recombine.EnableBokehSettings:0    ; no bokeh simulation on slight out of focus]]
[2019.08.12-20.10.25:145][  0]LogConfig: Setting CVar [[r.DOF.TemporalAAQuality:1                ; more stable temporal accumulation]]
[2019.08.12-20.10.25:146][  0]LogConfig: Setting CVar [[r.DOF.Kernel.MaxForegroundRadius:0.025]]
[2019.08.12-20.10.25:146][  0]LogConfig: Setting CVar [[r.DOF.Kernel.MaxBackgroundRadius:0.025]]
[2019.08.12-20.10.25:146][  0]LogConfig: Applying CVar settings from Section [TextureQuality@3] File [G:/Repo_2/TestProjectArtCraft/Saved/Config/Windows/Scalability.ini]
[2019.08.12-20.10.25:146][  0]LogConfig: Setting CVar [[r.Streaming.MipBias:0]]
[2019.08.12-20.10.25:146][  0]LogConfig: Setting CVar [[r.Streaming.AmortizeCPUToGPUCopy:0]]
[2019.08.12-20.10.25:146][  0]LogConfig: Setting CVar [[r.Streaming.MaxNumTexturesToStreamPerFrame:0]]
[2019.08.12-20.10.25:146][  0]LogConfig: Setting CVar [[r.Streaming.Boost:1]]
[2019.08.12-20.10.25:146][  0]LogConfig: Setting CVar [[r.MaxAnisotropy:8]]
[2019.08.12-20.10.25:146][  0]LogConfig: Setting CVar [[r.Streaming.LimitPoolSizeToVRAM:0]]
[2019.08.12-20.10.25:146][  0]LogConfig: Setting CVar [[r.Streaming.PoolSize:1000]]
[2019.08.12-20.10.25:146][  0]LogConfig: Setting CVar [[r.Streaming.MaxEffectiveScreenSize:0]]
[2019.08.12-20.10.25:146][  0]LogConfig: Applying CVar settings from Section [EffectsQuality@3] File [G:/Repo_2/TestProjectArtCraft/Saved/Config/Windows/Scalability.ini]
[2019.08.12-20.10.25:146][  0]LogConfig: Setting CVar [[r.TranslucencyLightingVolumeDim:64]]
[2019.08.12-20.10.25:146][  0]LogConfig: Setting CVar [[r.RefractionQuality:2]]
[2019.08.12-20.10.25:146][  0]LogConfig: Setting CVar [[r.SSR.Quality:3]]
[2019.08.12-20.10.25:146][  0]LogConfig: Setting CVar [[r.SceneColorFormat:4]]
[2019.08.12-20.10.25:146][  0]LogConfig: Setting CVar [[r.DetailMode:2]]
[2019.08.12-20.10.25:146][  0]LogConfig: Setting CVar [[r.TranslucencyVolumeBlur:1]]
[2019.08.12-20.10.25:146][  0]LogConfig: Setting CVar [[r.MaterialQualityLevel:1 ; High quality]]
[2019.08.12-20.10.25:146][  0]LogConfig: Setting CVar [[r.SSS.Scale:1]]
[2019.08.12-20.10.25:146][  0]LogConfig: Setting CVar [[r.SSS.SampleSet:2]]
[2019.08.12-20.10.25:146][  0]LogConfig: Setting CVar [[r.SSS.Quality:1]]
[2019.08.12-20.10.25:146][  0]LogConfig: Setting CVar [[r.SSS.HalfRes:1]]
[2019.08.12-20.10.25:146][  0]LogConfig: Setting CVar [[r.EmitterSpawnRateScale:1.0]]
[2019.08.12-20.10.25:146][  0]LogConfig: Setting CVar [[r.ParticleLightQuality:2]]
[2019.08.12-20.10.25:146][  0]LogConfig: Applying CVar settings from Section [FoliageQuality@3] File [G:/Repo_2/TestProjectArtCraft/Saved/Config/Windows/Scalability.ini]
[2019.08.12-20.10.25:146][  0]LogConfig: Setting CVar [[foliage.DensityScale:1.0]]
[2019.08.12-20.10.25:146][  0]LogConfig: Setting CVar [[grass.DensityScale:1.0]]
[2019.08.12-20.10.25:146][  0]LogConfig: Applying CVar settings from Section [Startup] File [../../../Engine/Config/ConsoleVariables.ini]
[2019.08.12-20.10.25:146][  0]LogConfig: Setting CVar [[net.UseAdaptiveNetUpdateFrequency:0]]
[2019.08.12-20.10.25:146][  0]LogConfig: Setting CVar [[p.chaos.AllowCreatePhysxBodies:1]]
[2019.08.12-20.10.25:147][  0]LogConfig: Applying CVar settings from Section [ConsoleVariables] File [G:/Repo_2/TestProjectArtCraft/Saved/Config/Windows/Engine.ini]
[2019.08.12-20.10.25:147][  0]LogInit: Computer: DESKTOP-0BAP7NG
[2019.08.12-20.10.25:147][  0]LogInit: User: bekhf
[2019.08.12-20.10.25:147][  0]LogInit: CPU Page size=4096, Cores=4
[2019.08.12-20.10.25:147][  0]LogInit: High frequency timer resolution =3.222764 MHz
[2019.08.12-20.10.25:147][  0]LogMemory: Memory total: Physical=15.9GB (16GB approx)
[2019.08.12-20.10.25:147][  0]LogMemory: Platform Memory Stats for Windows
[2019.08.12-20.10.25:147][  0]LogMemory: Process Physical Memory: 98.35 MB used, 98.35 MB peak
[2019.08.12-20.10.25:147][  0]LogMemory: Process Virtual Memory: 100.97 MB used, 100.97 MB peak
[2019.08.12-20.10.25:147][  0]LogMemory: Physical Memory: 4868.52 MB used,  11463.75 MB free, 16332.27 MB total
[2019.08.12-20.10.25:147][  0]LogMemory: Virtual Memory: 4666.36 MB used,  134213064.00 MB free, 134217728.00 MB total
[2019.08.12-20.10.25:206][  0]LogInit: Using OS detected language (ru-RU).
[2019.08.12-20.10.25:206][  0]LogInit: Using OS detected locale (ru-RU).
[2019.08.12-20.10.25:207][  0]LogTextLocalizationManager: No specific localization for 'ru-RU' exists, so the 'ru' localization will be used.
[2019.08.12-20.10.25:208][  0]LogTextLocalizationResource: LocRes '../../../Engine/Content/Localization/Editor/ru/Editor.locres' could not be opened for reading!
[2019.08.12-20.10.25:208][  0]LogTextLocalizationResource: LocRes '../../../Engine/Content/Localization/EditorTutorials/ru/EditorTutorials.locres' could not be opened for reading!
[2019.08.12-20.10.25:208][  0]LogTextLocalizationResource: LocRes '../../../Engine/Content/Localization/Keywords/ru/Keywords.locres' could not be opened for reading!
[2019.08.12-20.10.25:208][  0]LogTextLocalizationResource: LocRes '../../../Engine/Content/Localization/Category/ru/Category.locres' could not be opened for reading!
[2019.08.12-20.10.25:208][  0]LogTextLocalizationResource: LocRes '../../../Engine/Content/Localization/ToolTips/ru/ToolTips.locres' could not be opened for reading!
[2019.08.12-20.10.25:208][  0]LogTextLocalizationResource: LocRes '../../../Engine/Content/Localization/PropertyNames/ru/PropertyNames.locres' could not be opened for reading!
[2019.08.12-20.10.25:208][  0]LogTextLocalizationResource: LocRes '../../../Engine/Content/Localization/Engine/ru/Engine.locres' could not be opened for reading!
[2019.08.12-20.10.25:209][  0]LogInit: Setting process to per monitor DPI aware
[2019.08.12-20.10.25:283][  0]LogSlate: New Slate User Created.  User Index 0, Is Virtual User: 0
[2019.08.12-20.10.25:283][  0]LogSlate: Slate User Registered.  User Index 0, Is Virtual User: 0
[2019.08.12-20.10.25:590][  0]LogHMD: Failed to initialize OpenVR with code 110
[2019.08.12-20.10.25:590][  0]LogD3D11RHI: D3D11 adapters:
[2019.08.12-20.10.25:621][  0]LogD3D11RHI:    0. 'AMD Radeon (TM) R7 370 Series Graphics' (Feature Level 11_0)
[2019.08.12-20.10.25:621][  0]LogD3D11RHI:       4076/0/8166 MB DedicatedVideo/DedicatedSystem/SharedSystem, Outputs:2, VendorId:0x1002
[2019.08.12-20.10.25:624][  0]LogD3D11RHI:    1. 'Microsoft Basic Render Driver' (Feature Level 11_0)
[2019.08.12-20.10.25:624][  0]LogD3D11RHI:       0/0/8166 MB DedicatedVideo/DedicatedSystem/SharedSystem, Outputs:0, VendorId:0x1414
[2019.08.12-20.10.25:624][  0]LogD3D11RHI: Chosen D3D11 Adapter: 0
[2019.08.12-20.10.25:632][  0]LogD3D11RHI: Creating new Direct3DDevice
[2019.08.12-20.10.25:632][  0]LogD3D11RHI:     GPU DeviceId: 0x6811 (for the marketing name, search the web for "GPU Device Id")
[2019.08.12-20.10.25:632][  0]LogWindows: EnumDisplayDevices:
[2019.08.12-20.10.25:632][  0]LogWindows:    0. 'AMD Radeon (TM) R7 370 Series Graphics' (P:1 D:1)
[2019.08.12-20.10.25:633][  0]LogWindows:    1. 'AMD Radeon (TM) R7 370 Series Graphics' (P:0 D:1)
[2019.08.12-20.10.25:633][  0]LogWindows:    2. 'AMD Radeon (TM) R7 370 Series Graphics' (P:0 D:0)
[2019.08.12-20.10.25:633][  0]LogWindows:    3. 'AMD Radeon (TM) R7 370 Series Graphics' (P:0 D:0)
[2019.08.12-20.10.25:634][  0]LogWindows:    4. 'AMD Radeon (TM) R7 370 Series Graphics' (P:0 D:0)
[2019.08.12-20.10.25:634][  0]LogWindows:    5. 'AMD Radeon (TM) R7 370 Series Graphics' (P:0 D:0)
[2019.08.12-20.10.25:635][  0]LogWindows:    6. 'AMD Radeon (TM) R7 370 Series Graphics' (P:0 D:0)
[2019.08.12-20.10.25:635][  0]LogWindows:    7. 'AMD Radeon (TM) R7 370 Series Graphics' (P:0 D:0)
[2019.08.12-20.10.25:636][  0]LogWindows: DebugString: FoundDriverCount:8 
[2019.08.12-20.10.25:636][  0]LogD3D11RHI:     Adapter Name: AMD Radeon (TM) R7 370 Series Graphics
[2019.08.12-20.10.25:636][  0]LogD3D11RHI:   Driver Version: Adrenalin 2019 19.5.2 (internal:26.20.11015.5009, unified:26.20.11015.5009)
[2019.08.12-20.10.25:636][  0]LogD3D11RHI:      Driver Date: 5-22-2019
[2019.08.12-20.10.25:636][  0]LogRHI: Texture pool is 2853 MB (70% of 4076 MB)
[2019.08.12-20.10.25:684][  0]LogD3D11RHI: Async texture creation enabled
[2019.08.12-20.10.25:690][  0]LogRendererCore: FGlobalReadBuffer::InitRHI
[2019.08.12-20.10.25:691][  0]LogRendererCore: FGlobalReadBuffer::InitRHI
[2019.08.12-20.10.25:691][  0]LogRendererCore: FGlobalReadBuffer::InitRHI
[2019.08.12-20.10.25:698][  0]LogD3D11RHI: GPU Timing Frequency: 27.000000 (Debug: 2 1)
[2019.08.12-20.10.26:139][  0]LogTemp: Display: Module 'AllDesktopTargetPlatform' loaded TargetPlatform 'AllDesktop'
[2019.08.12-20.10.26:163][  0]LogTemp: Display: Module 'MacClientTargetPlatform' loaded TargetPlatform 'MacClient'
[2019.08.12-20.10.26:187][  0]LogTemp: Display: Module 'MacNoEditorTargetPlatform' loaded TargetPlatform 'MacNoEditor'
[2019.08.12-20.10.26:212][  0]LogTemp: Display: Module 'MacServerTargetPlatform' loaded TargetPlatform 'MacServer'
[2019.08.12-20.10.26:237][  0]LogTemp: Display: Module 'MacTargetPlatform' loaded TargetPlatform 'Mac'
[2019.08.12-20.10.26:262][  0]LogTemp: Display: Module 'WindowsClientTargetPlatform' loaded TargetPlatform 'WindowsClient'
[2019.08.12-20.10.26:289][  0]LogTemp: Display: Module 'WindowsNoEditorTargetPlatform' loaded TargetPlatform 'WindowsNoEditor'
[2019.08.12-20.10.26:319][  0]LogTemp: Display: Module 'WindowsServerTargetPlatform' loaded TargetPlatform 'WindowsServer'
[2019.08.12-20.10.26:331][  0]LogTemp: Display: Module 'WindowsTargetPlatform' loaded TargetPlatform 'Windows'
[2019.08.12-20.10.26:523][  0]LogTemp: Display: Module 'AndroidTargetPlatform' loaded TargetPlatform 'Android'
[2019.08.12-20.10.26:523][  0]LogTemp: Display: Module 'AndroidTargetPlatform' loaded TargetPlatform 'Android_ASTC'
[2019.08.12-20.10.26:523][  0]LogTemp: Display: Module 'AndroidTargetPlatform' loaded TargetPlatform 'Android_ATC'
[2019.08.12-20.10.26:523][  0]LogTemp: Display: Module 'AndroidTargetPlatform' loaded TargetPlatform 'Android_DXT'
[2019.08.12-20.10.26:523][  0]LogTemp: Display: Module 'AndroidTargetPlatform' loaded TargetPlatform 'Android_ETC1'
[2019.08.12-20.10.26:523][  0]LogTemp: Display: Module 'AndroidTargetPlatform' loaded TargetPlatform 'Android_ETC1a'
[2019.08.12-20.10.26:523][  0]LogTemp: Display: Module 'AndroidTargetPlatform' loaded TargetPlatform 'Android_ETC2'
[2019.08.12-20.10.26:523][  0]LogTemp: Display: Module 'AndroidTargetPlatform' loaded TargetPlatform 'Android_PVRTC'
[2019.08.12-20.10.26:523][  0]LogTemp: Display: Module 'AndroidTargetPlatform' loaded TargetPlatform 'AndroidClient'
[2019.08.12-20.10.26:523][  0]LogTemp: Display: Module 'AndroidTargetPlatform' loaded TargetPlatform 'Android_ASTCClient'
[2019.08.12-20.10.26:523][  0]LogTemp: Display: Module 'AndroidTargetPlatform' loaded TargetPlatform 'Android_ATCClient'
[2019.08.12-20.10.26:523][  0]LogTemp: Display: Module 'AndroidTargetPlatform' loaded TargetPlatform 'Android_DXTClient'
[2019.08.12-20.10.26:523][  0]LogTemp: Display: Module 'AndroidTargetPlatform' loaded TargetPlatform 'Android_ETC1Client'
[2019.08.12-20.10.26:523][  0]LogTemp: Display: Module 'AndroidTargetPlatform' loaded TargetPlatform 'Android_ETC1aClient'
[2019.08.12-20.10.26:523][  0]LogTemp: Display: Module 'AndroidTargetPlatform' loaded TargetPlatform 'Android_ETC2Client'
[2019.08.12-20.10.26:523][  0]LogTemp: Display: Module 'AndroidTargetPlatform' loaded TargetPlatform 'Android_PVRTCClient'
[2019.08.12-20.10.26:523][  0]LogTemp: Display: Module 'AndroidTargetPlatform' loaded TargetPlatform 'Android_Multi'
[2019.08.12-20.10.26:523][  0]LogTemp: Display: Module 'AndroidTargetPlatform' loaded TargetPlatform 'Android_MultiClient'
[2019.08.12-20.10.26:526][  0]LogTemp: Display: Module 'HTML5TargetPlatform' loaded TargetPlatform 'HTML5'
[2019.08.12-20.10.26:607][  0]LogTemp: Display: Module 'IOSTargetPlatform' loaded TargetPlatform 'IOSClient'
[2019.08.12-20.10.26:607][  0]LogTemp: Display: Module 'IOSTargetPlatform' loaded TargetPlatform 'IOS'
[2019.08.12-20.10.26:652][  0]LogTemp: Display: Module 'TVOSTargetPlatform' loaded TargetPlatform 'TVOSClient'
[2019.08.12-20.10.26:652][  0]LogTemp: Display: Module 'TVOSTargetPlatform' loaded TargetPlatform 'TVOS'
[2019.08.12-20.10.26:673][  0]LogTemp: Display: Module 'LinuxClientTargetPlatform' loaded TargetPlatform 'LinuxClient'
[2019.08.12-20.10.26:697][  0]LogTemp: Display: Module 'LinuxNoEditorTargetPlatform' loaded TargetPlatform 'LinuxNoEditor'
[2019.08.12-20.10.26:725][  0]LogTemp: Display: Module 'LinuxServerTargetPlatform' loaded TargetPlatform 'LinuxServer'
[2019.08.12-20.10.26:747][  0]LogTemp: Display: Module 'LinuxTargetPlatform' loaded TargetPlatform 'Linux'
[2019.08.12-20.10.26:828][  0]LogTemp: Display: Module 'LuminTargetPlatform' loaded TargetPlatform 'Lumin'
[2019.08.12-20.10.26:828][  0]LogTemp: Display: Module 'LuminTargetPlatform' loaded TargetPlatform 'LuminClient'
[2019.08.12-20.10.26:828][  0]LogTargetPlatformManager: Display: Building Assets For Windows
[2019.08.12-20.10.26:838][  0]LogAudioDebug: Display: Lib vorbis DLL was dynamically loaded.
[2019.08.12-20.10.26:893][  0]LogShaderCompilers: Guid format shader working directory is 16 characters bigger than the processId version (G:/Repo_2/TestProjectArtCraft/Intermediate/Shaders/WorkingDirectory/13832/).
[2019.08.12-20.10.26:893][  0]LogShaderCompilers: Cleaned the shader compiler working directory 'C:/Users/bekhf/AppData/Local/Temp/UnrealShaderWorkingDir/D15A9F194DC2B124F1324FAC92244767/'.
[2019.08.12-20.10.26:896][  0]LogXGEController: Cleaning working directory: C:/Users/bekhf/AppData/Local/Temp/UnrealXGEWorkingDir/
[2019.08.12-20.10.26:896][  0]LogXGEController: Cannot use XGE Controller as Incredibuild is not installed on this machine.
[2019.08.12-20.10.26:896][  0]LogShaderCompilers: Cannot use XGE Shader Compiler as Incredibuild is not installed on this machine.
[2019.08.12-20.10.26:896][  0]LogShaderCompilers: Display: Using Local Shader Compiler.
[2019.08.12-20.10.28:002][  0]LogDerivedDataCache: Display: Max Cache Size: 512 MB
[2019.08.12-20.10.28:093][  0]LogDerivedDataCache: Loaded boot cache 0.09s 73MB C:/Users/bekhf/AppData/Local/UnrealEngine/4.22/DerivedDataCache/Boot.ddc.
[2019.08.12-20.10.28:093][  0]LogDerivedDataCache: Display: Loaded Boot cache: C:/Users/bekhf/AppData/Local/UnrealEngine/4.22/DerivedDataCache/Boot.ddc
[2019.08.12-20.10.28:094][  0]LogDerivedDataCache: FDerivedDataBackendGraph:  Pak pak cache file G:/Repo_2/TestProjectArtCraft/DerivedDataCache/DDC.ddp not found, will not use a pak cache.
[2019.08.12-20.10.28:094][  0]LogDerivedDataCache: Unable to find inner node Pak for hierarchical cache Hierarchy.
[2019.08.12-20.10.28:094][  0]LogDerivedDataCache: FDerivedDataBackendGraph:  CompressedPak pak cache file G:/Repo_2/TestProjectArtCraft/DerivedDataCache/Compressed.ddp not found, will not use a pak cache.
[2019.08.12-20.10.28:094][  0]LogDerivedDataCache: Unable to find inner node CompressedPak for hierarchical cache Hierarchy.
[2019.08.12-20.10.28:109][  0]LogDerivedDataCache: Display: Pak cache opened for reading ../../../Engine/DerivedDataCache/Compressed.ddp.
[2019.08.12-20.10.28:110][  0]LogDerivedDataCache: FDerivedDataBackendGraph:  EnterprisePak pak cache file ../../../Enterprise/DerivedDataCache/Compressed.ddp not found, will not use a pak cache.
[2019.08.12-20.10.28:110][  0]LogDerivedDataCache: Unable to find inner node EnterprisePak for hierarchical cache Hierarchy.
[2019.08.12-20.10.28:122][  0]LogDerivedDataCache: Using Local data cache path C:/Users/bekhf/AppData/Local/UnrealEngine/Common/DerivedDataCache: Writable
[2019.08.12-20.10.28:122][  0]LogDerivedDataCache: Shared data cache path not found in *engine.ini, will not use an Shared cache.
[2019.08.12-20.10.28:122][  0]LogDerivedDataCache: Unable to find inner node Shared for hierarchical cache Hierarchy.
[2019.08.12-20.10.28:161][  0]LogMaterial: Verifying Global Shaders for PCD3D_SM5
[2019.08.12-20.10.28:163][  0]LogSlate: Using FreeType 2.6.0
[2019.08.12-20.10.28:163][  0]LogSlate: SlateFontServices - WITH_FREETYPE: 1, WITH_HARFBUZZ: 1
[2019.08.12-20.10.28:278][  0]LogAssetRegistry: FAssetRegistry took 0.0453 seconds to start up
[2019.08.12-20.10.28:837][  0]LogInit: Selected Device Profile: [Windows]
[2019.08.12-20.10.29:014][  0]LogMeshReduction: Using QuadricMeshReduction for automatic static mesh reduction
[2019.08.12-20.10.29:014][  0]LogMeshReduction: Using SimplygonMeshReduction for automatic skeletal mesh reduction
[2019.08.12-20.10.29:014][  0]LogMeshReduction: Using ProxyLODMeshReduction for automatic mesh merging
[2019.08.12-20.10.29:015][  0]LogMeshReduction: No distributed automatic mesh merging module available
[2019.08.12-20.10.29:015][  0]LogMeshMerging: No distributed automatic mesh merging module available
[2019.08.12-20.10.29:026][  0]LogNetVersion: TestProjectArtCraft 1.0.0, NetCL: 5660361, EngineNetVer: 10, GameNetVer: 0 (Checksum: 2247649024)
[2019.08.12-20.10.29:549][  0]LogPackageLocalizationCache: Processed 10 localized package path(s) for 1 prioritized culture(s) in 0.048952 seconds
[2019.08.12-20.10.29:557][  0]LogUObjectArray: 42205 objects as part of root set at end of initial load.
[2019.08.12-20.10.29:557][  0]LogUObjectAllocator: 7325032 out of 0 bytes used by permanent object pool.
[2019.08.12-20.10.29:557][  0]LogUObjectArray: CloseDisregardForGC: 0/0 objects in disregard for GC pool
[2019.08.12-20.10.30:544][  0]LogTcpMessaging: Initializing TcpMessaging bridge
[2019.08.12-20.10.30:558][  0]LogUdpMessaging: Initializing bridge on interface 0.0.0.0:0 to multicast group 230.0.0.1:6666.
[2019.08.12-20.10.30:930][  0]LogStats: FPlatformStackWalk::StackWalkAndDump -  0.284 s
[2019.08.12-20.10.30:930][  0]LogOutputDevice: Error: === Handled ensure: ===
[2019.08.12-20.10.30:930][  0]LogOutputDevice: Error: 
[2019.08.12-20.10.30:930][  0]LogOutputDevice: Error: Ensure condition failed: AttachmentRules.LocationRule == EAttachmentRule::KeepRelative && AttachmentRules.RotationRule == EAttachmentRule::KeepRelative && AttachmentRules.ScaleRule == EAttachmentRule::KeepRelative [File:D:\Build\++UE4\Sync\Engine\Source\Runtime\Engine\Private\Components\SceneComponent.cpp] [Line: 1786]
[2019.08.12-20.10.30:931][  0]LogOutputDevice: Error: AttachToComponent when called from a constructor is only setting up attachment and will always be treated as KeepRelative. Consider calling SetupAttachment directly instead.
[2019.08.12-20.10.30:931][  0]LogOutputDevice: Error: Stack: 
[2019.08.12-20.10.30:931][  0]LogOutputDevice: Error: [Callstack] 0x00007ff80900cd89 UE4Editor-Engine.dll!UnknownFunction []
[2019.08.12-20.10.30:931][  0]LogOutputDevice: Error: [Callstack] 0x00007ff807e44fa1 UE4Editor-Engine.dll!UnknownFunction []
[2019.08.12-20.10.30:931][  0]LogOutputDevice: Error: [Callstack] 0x00007fffe92028e7 UE4Editor-TestProjectArtCraft-0020.dll!ABasePickUp::ABasePickUp() [G:\Repo_2\TestProjectArtCraft\Source\TestProjectArtCraft\PickUp\BasePickUp.cpp:27]
[2019.08.12-20.10.30:931][  0]LogOutputDevice: Error: [Callstack] 0x00007ff80a2e610f UE4Editor-CoreUObject.dll!UnknownFunction []
[2019.08.12-20.10.30:931][  0]LogOutputDevice: Error: [Callstack] 0x00007ff80a521056 UE4Editor-CoreUObject.dll!UnknownFunction []
[2019.08.12-20.10.30:931][  0]LogOutputDevice: Error: [Callstack] 0x00007ff80a50edef UE4Editor-CoreUObject.dll!UnknownFunction []
[2019.08.12-20.10.30:931][  0]LogOutputDevice: Error: [Callstack] 0x00007ff80a2ea727 UE4Editor-CoreUObject.dll!UnknownFunction []
[2019.08.12-20.10.30:931][  0]LogOutputDevice: Error: [Callstack] 0x00007ff806fa4a2b UE4Editor-Core.dll!UnknownFunction []
[2019.08.12-20.10.30:931][  0]LogOutputDevice: Error: [Callstack] 0x00007ff807175cb5 UE4Editor-Core.dll!UnknownFunction []
[2019.08.12-20.10.30:931][  0]LogOutputDevice: Error: [Callstack] 0x00007ff83fc08d67 UE4Editor-Projects.dll!UnknownFunction []
[2019.08.12-20.10.30:931][  0]LogOutputDevice: Error: [Callstack] 0x00007ff83fc08ff7 UE4Editor-Projects.dll!UnknownFunction []
[2019.08.12-20.10.30:931][  0]LogOutputDevice: Error: [Callstack] 0x00007ff795287eb1 UE4Editor.exe!UnknownFunction []
[2019.08.12-20.10.30:931][  0]LogOutputDevice: Error: [Callstack] 0x00007ff79528d671 UE4Editor.exe!UnknownFunction []
[2019.08.12-20.10.30:931][  0]LogOutputDevice: Error: [Callstack] 0x00007ff795285377 UE4Editor.exe!UnknownFunction []
[2019.08.12-20.10.30:931][  0]LogOutputDevice: Error: [Callstack] 0x00007ff7952855ca UE4Editor.exe!UnknownFunction []
[2019.08.12-20.10.30:931][  0]LogOutputDevice: Error: [Callstack] 0x00007ff79529316c UE4Editor.exe!UnknownFunction []
[2019.08.12-20.10.30:931][  0]LogOutputDevice: Error: [Callstack] 0x00007ff795295b8e UE4Editor.exe!UnknownFunction []
[2019.08.12-20.10.30:931][  0]LogOutputDevice: Error: [Callstack] 0x00007ff85f704034 KERNEL32.DLL!UnknownFunction []
[2019.08.12-20.10.30:931][  0]LogOutputDevice: Error: [Callstack] 0x00007ff85ff63691 ntdll.dll!UnknownFunction []
[2019.08.12-20.10.30:931][  0]LogOutputDevice: Error: 
[2019.08.12-20.10.30:967][  0]LogStats:                SubmitErrorReport -  0.000 s
[2019.08.12-20.10.31:324][  0]LogStats:                    SendNewReport -  0.357 s
[2019.08.12-20.10.31:324][  0]LogStats:             FDebug::EnsureFailed -  0.678 s
[2019.08.12-20.10.31:691][  0]LogBlueprint: Warning: [Compiler ALS_BaseCharacter] InputAction Event references unknown Action 'CameraAction' for  InputAction CameraAction
[2019.08.12-20.10.31:691][  0]LogBlueprint: Warning: [Compiler ALS_BaseCharacter] InputAction Event references unknown Action 'RagdollAction' for  InputAction RagdollAction
[2019.08.12-20.10.31:691][  0]LogBlueprint: Warning: [Compiler ALS_BaseCharacter] InputAction Event references unknown Action 'SprintAction' for  InputAction SprintAction
[2019.08.12-20.10.31:694][  0]LogBlueprint: Warning: [Compiler ALS_BaseCharacter] InputAction Event references unknown Action 'SelectRotationMode_2' for  InputAction SelectRotationMode_2
[2019.08.12-20.10.31:694][  0]LogBlueprint: Warning: [Compiler ALS_BaseCharacter] InputAction Event references unknown Action 'SelectRotationMode_1' for  InputAction SelectRotationMode_1
[2019.08.12-20.10.31:694][  0]LogBlueprint: Warning: [Compiler ALS_BaseCharacter] InputAction Event references unknown Action 'AimAction' for  InputAction AimAction
[2019.08.12-20.10.31:694][  0]LogBlueprint: Warning: [Compiler ALS_BaseCharacter] InputAction Event references unknown Action 'WalkAction' for  InputAction WalkAction
[2019.08.12-20.10.31:694][  0]LogBlueprint: Warning: [Compiler ALS_BaseCharacter] InputAction Event references unknown Action 'StanceAction' for  InputAction StanceAction
[2019.08.12-20.10.31:694][  0]LogBlueprint: Warning: [Compiler ALS_BaseCharacter] InputAction Event references unknown Action 'JumpAction' for  InputAction JumpAction
[2019.08.12-20.10.31:694][  0]LogBlueprint: Warning: [Compiler ALS_BaseCharacter] Input Axis Event references unknown Axis 'LookLeft/Right' for  InputAxis LookLeft/Right
[2019.08.12-20.10.31:695][  0]LogBlueprint: Warning: [Compiler ALS_BaseCharacter] Input Axis Event references unknown Axis 'LookUp/Down' for  InputAxis LookUp/Down
[2019.08.12-20.10.31:695][  0]LogBlueprint: Warning: [Compiler ALS_BaseCharacter] Input Axis Event references unknown Axis 'MoveRight/Left' for  InputAxis MoveRight/Left
[2019.08.12-20.10.31:695][  0]LogBlueprint: Warning: [Compiler ALS_BaseCharacter] Input Axis Event references unknown Axis 'MoveForward/Backwards' for  InputAxis MoveForward/Backwards
[2019.08.12-20.10.31:890][  0]LogBlueprint: Warning: [Compiler ALS_BaseCharacter] [0009,14] Compile of ALS_BaseCharacter successful, but with 13 Warning(s) [in 350 ms] (/Game/AdvancedLocomotionV3/Blueprints/ALS_BaseCharacter.ALS_BaseCharacter)
[2019.08.12-20.10.32:169][  0]SourceControl: Source control is disabled
[2019.08.12-20.10.32:169][  0]SourceControl: Source control is disabled
[2019.08.12-20.10.32:171][  0]SourceControl: Source control is disabled
[2019.08.12-20.10.32:173][  0]SourceControl: Source control is disabled
[2019.08.12-20.10.32:278][  0]LogAndroidPermission: UAndroidPermissionCallbackProxy::GetInstance
[2019.08.12-20.10.32:380][  0]LogOcInput: OculusInput pre-init called
[2019.08.12-20.10.33:224][  0]LogEngine: Initializing Engine...
[2019.08.12-20.10.33:225][  0]LogHMD: Failed to initialize OpenVR with code 110
[2019.08.12-20.10.33:227][  0]LogStats: UGameplayTagsManager::InitializeManager -  0.000 s
[2019.08.12-20.10.33:536][  0]LogInit: Initializing FReadOnlyCVARCache
[2019.08.12-20.10.33:549][  0]LogAIModule: Creating AISystem for world Untitled
[2019.08.12-20.10.33:566][  0]LogInit: XAudio2 using 'Динамики (Realtek High Definition Audio)' : 2 channels at 48 kHz using 32 bits per sample (channel mask 0x3)
[2019.08.12-20.10.33:594][  0]LogInit: FAudioDevice initialized.
[2019.08.12-20.10.33:594][  0]LogNetVersion: Set ProjectVersion to 1.0.0.0. Version Checksum will be recalculated on next use.
[2019.08.12-20.10.33:710][  0]LogDerivedDataCache: Saved boot cache 0.12s 73MB C:/Users/bekhf/AppData/Local/UnrealEngine/4.22/DerivedDataCache/Boot.ddc.
[2019.08.12-20.10.33:730][  0]LogInit: Texture streaming: Enabled
[2019.08.12-20.10.33:751][  0]LogEngineSessionManager: EngineSessionManager initialized
[2019.08.12-20.10.33:774][  0]LogInit: Transaction tracking system initialized
[2019.08.12-20.10.33:797][  0]BlueprintLog: New page: Editor Load
[2019.08.12-20.10.33:883][  0]LocalizationService: Localization service is disabled
[2019.08.12-20.10.34:270][  0]LogCook: Display: Max memory allowance for cook 16384mb min free memory 0mb
[2019.08.12-20.10.34:270][  0]LogCook: Display: Mobile HDR setting 1
[2019.08.12-20.10.34:497][  0]LogFileCache: Scanning file cache for directory 'G:/Repo_2/TestProjectArtCraft/Content/' took 0.03s
[2019.08.12-20.10.34:497][  0]SourceControl: Source control is disabled
[2019.08.12-20.10.34:498][  0]Cmd: MAP LOAD FILE="G:/Repo_2/TestProjectArtCraft/Content/MyAsset/Maps/CPPCharacter.umap" TEMPLATE=0 SHOWPROGRESS=1 FEATURELEVEL=3
[2019.08.12-20.10.34:498][  0]LightingResults: New page: Lighting Build
[2019.08.12-20.10.34:501][  0]MapCheck: New page: Map Check
[2019.08.12-20.10.34:501][  0]LightingResults: New page: Lighting Build
[2019.08.12-20.10.34:677][  0]LogUObjectHash: Compacting FUObjectHashTables data took   5.08ms
[2019.08.12-20.10.34:976][  0]LogLinker: Error: Failed import: class 'StaticMeshComponent' name 'PickUpMesh' outer 'Default__BP_AmmoCrate_C'. There is another object (of 'SkeletalMeshComponent' class) at the path.
[2019.08.12-20.10.34:976][  0]LogLinker: Error: Failed import: class 'StaticMeshComponent' name 'PickUpMesh' outer 'Default__BP_AmmoCrate_C'. There is another object (of 'SkeletalMeshComponent' class) at the path.
[2019.08.12-20.10.34:977][  0]LogLinker: Error: Failed import: class 'StaticMeshComponent' name 'PickUpMesh' outer 'Default__BP_AmmoCrate_C'. There is another object (of 'SkeletalMeshComponent' class) at the path.
[2019.08.12-20.10.34:983][  0]LogLinker: Error: Failed import: class 'StaticMeshComponent' name 'PickUpMesh' outer 'Default__BP_HealthPack_C'. There is another object (of 'SkeletalMeshComponent' class) at the path.
[2019.08.12-20.10.34:983][  0]LogLinker: Error: Failed import: class 'StaticMeshComponent' name 'PickUpMesh' outer 'Default__BP_HealthPack_C'. There is another object (of 'SkeletalMeshComponent' class) at the path.
[2019.08.12-20.10.34:987][  0]LogLinker: Error: Failed import: class 'StaticMeshComponent' name 'PickUpMesh' outer 'Default__BP_HealthPack_C'. There is another object (of 'SkeletalMeshComponent' class) at the path.
[2019.08.12-20.10.35:393][  0]LogBlueprint: Warning: Node '/Game/SciFiWeapDark/Sound/RocketLauncher/RocketLauncher_AmmoPickup_Cue.RocketLauncher_AmmoPickup_Cue:SoundCueGraph_45.SoundCueGraphNode_179' missing NodeGuid because of upgrade from old package version, this can cause deterministic cooking issues please resave package.
[2019.08.12-20.10.35:393][  0]LogBlueprint: Warning: Node '/Game/SciFiWeapDark/Sound/RocketLauncher/RocketLauncher_AmmoPickup_Cue.RocketLauncher_AmmoPickup_Cue:SoundCueGraph_45.SoundCueGraphNode_Root_45' missing NodeGuid because of upgrade from old package version, this can cause deterministic cooking issues please resave package.
[2019.08.12-20.10.35:412][  0]LogAIModule: Creating AISystem for world CPPCharacter
[2019.08.12-20.10.35:416][  0]PIE: Warning: Trying to simulate physics on ''/Game/MyAsset/Maps/CPPCharacter.CPPCharacter:PersistentLevel.Floor_14.StaticMeshComponent0'' but it has ComplexAsSimple collision.
[2019.08.12-20.10.35:423][  0]LogEditorServer: Finished looking for orphan Actors (0.000 secs)
[2019.08.12-20.10.35:574][  0]LogUObjectHash: Compacting FUObjectHashTables data took   4.49ms
[2019.08.12-20.10.35:574][  0]Cmd: MAP CHECKDEP NOCLEARLOG
[2019.08.12-20.10.35:574][  0]MapCheck: Map check complete: 0 Error(s), 0 Warning(s), took 0,13ms to complete.
[2019.08.12-20.10.35:575][  0]LogFileHelpers: Loading map 'CPPCharacter' took 1.077
[2019.08.12-20.10.35:736][  0]LogSlate: Updating window title bar state: overlay mode, drag disabled, window buttons hidden, title bar hidden
[2019.08.12-20.10.35:747][  0]LogSlate: Updating window title bar state: overlay mode, drag disabled, window buttons hidden, title bar hidden
[2019.08.12-20.10.35:756][  0]LogSlate: Updating window title bar state: overlay mode, drag disabled, window buttons hidden, title bar hidden
[2019.08.12-20.10.35:766][  0]LogSlate: Updating window title bar state: overlay mode, drag disabled, window buttons hidden, title bar hidden
[2019.08.12-20.10.35:772][  0]LogCollectionManager: Loaded 0 collections in 0.001223 seconds
[2019.08.12-20.10.35:788][  0]LogFileCache: Scanning file cache for directory 'G:/Repo_2/TestProjectArtCraft/Saved/Collections/' took 0.01s
[2019.08.12-20.10.35:788][  0]LogFileCache: Scanning file cache for directory 'G:/Repo_2/TestProjectArtCraft/Content/Developers/bekhf/Collections/' took 0.00s
[2019.08.12-20.10.35:788][  0]LogFileCache: Scanning file cache for directory 'G:/Repo_2/TestProjectArtCraft/Content/Collections/' took 0.00s
[2019.08.12-20.10.35:788][  0]LogCollectionManager: Rebuilt the GUID cache for 0 collections in 0.000000 seconds
[2019.08.12-20.10.35:804][  0]LogContentBrowser: Native class hierarchy populated in 0.0155 seconds. Added 2745 classes and 664 folders.
[2019.08.12-20.10.35:810][  0]LogContentBrowser: Native class hierarchy updated for 'WidgetCarousel' in 0.0004 seconds. Added 0 classes and 0 folders.
[2019.08.12-20.10.35:811][  0]LogPakFile: Registered encryption key '00000000000000000000000000000000': 0 pak files mounted, 0 remain pending
[2019.08.12-20.10.35:812][  0]LogPakFile: Registered encryption key '00000000000000000000000000000000': 0 pak files mounted, 0 remain pending
[2019.08.12-20.10.35:813][  0]LogPakFile: Registered encryption key '00000000000000000000000000000000': 0 pak files mounted, 0 remain pending
[2019.08.12-20.10.35:813][  0]LogPakFile: Registered encryption key '00000000000000000000000000000000': 0 pak files mounted, 0 remain pending
[2019.08.12-20.10.35:813][  0]LogPakFile: Registered encryption key '00000000000000000000000000000000': 0 pak files mounted, 0 remain pending
[2019.08.12-20.10.35:814][  0]LogPakFile: Registered encryption key '00000000000000000000000000000000': 0 pak files mounted, 0 remain pending
[2019.08.12-20.10.35:814][  0]LogPakFile: Registered encryption key '00000000000000000000000000000000': 0 pak files mounted, 0 remain pending
[2019.08.12-20.10.35:815][  0]LogPakFile: Registered encryption key '00000000000000000000000000000000': 0 pak files mounted, 0 remain pending
[2019.08.12-20.10.35:816][  0]LogPakFile: Registered encryption key '00000000000000000000000000000000': 0 pak files mounted, 0 remain pending
[2019.08.12-20.10.35:816][  0]LogPakFile: Registered encryption key '00000000000000000000000000000000': 0 pak files mounted, 0 remain pending
[2019.08.12-20.10.35:817][  0]LogPakFile: Registered encryption key '00000000000000000000000000000000': 0 pak files mounted, 0 remain pending
[2019.08.12-20.10.35:817][  0]LogPakFile: Registered encryption key '00000000000000000000000000000000': 0 pak files mounted, 0 remain pending
[2019.08.12-20.10.35:818][  0]LogPakFile: Registered encryption key '00000000000000000000000000000000': 0 pak files mounted, 0 remain pending
[2019.08.12-20.10.35:818][  0]LogPakFile: Registered encryption key '00000000000000000000000000000000': 0 pak files mounted, 0 remain pending
[2019.08.12-20.10.35:819][  0]LogPakFile: Registered encryption key '00000000000000000000000000000000': 0 pak files mounted, 0 remain pending
[2019.08.12-20.10.35:819][  0]LogPakFile: Registered encryption key '00000000000000000000000000000000': 0 pak files mounted, 0 remain pending
[2019.08.12-20.10.35:820][  0]LogPakFile: Registered encryption key '00000000000000000000000000000000': 0 pak files mounted, 0 remain pending
[2019.08.12-20.10.35:821][  0]LogPakFile: Registered encryption key '00000000000000000000000000000000': 0 pak files mounted, 0 remain pending
[2019.08.12-20.10.35:821][  0]LogPakFile: Registered encryption key '00000000000000000000000000000000': 0 pak files mounted, 0 remain pending
[2019.08.12-20.10.35:822][  0]LogPakFile: Registered encryption key '00000000000000000000000000000000': 0 pak files mounted, 0 remain pending
[2019.08.12-20.10.35:822][  0]LogPakFile: Registered encryption key '00000000000000000000000000000000': 0 pak files mounted, 0 remain pending
[2019.08.12-20.10.35:823][  0]LogPakFile: Registered encryption key '00000000000000000000000000000000': 0 pak files mounted, 0 remain pending
[2019.08.12-20.10.35:824][  0]LogPakFile: Registered encryption key '00000000000000000000000000000000': 0 pak files mounted, 0 remain pending
[2019.08.12-20.10.35:824][  0]LogPakFile: Registered encryption key '00000000000000000000000000000000': 0 pak files mounted, 0 remain pending
[2019.08.12-20.10.35:825][  0]LogPakFile: Registered encryption key '00000000000000000000000000000000': 0 pak files mounted, 0 remain pending
[2019.08.12-20.10.35:825][  0]LogPakFile: Registered encryption key '00000000000000000000000000000000': 0 pak files mounted, 0 remain pending
[2019.08.12-20.10.35:860][  0]LogContentBrowser: Native class hierarchy updated for 'AddContentDialog' in 0.0004 seconds. Added 0 classes and 0 folders.
[2019.08.12-20.10.35:868][  0]LogContentBrowser: Native class hierarchy updated for 'SceneOutliner' in 0.0005 seconds. Added 1 classes and 2 folders.
[2019.08.12-20.10.35:885][  0]LogSlate: Took 0.000229 seconds to synchronously load lazily loaded font '../../../Engine/Content/Slate/Fonts/Roboto-Regular.ttf' (155K)
[2019.08.12-20.10.35:890][  0]LogSlate: Took 0.000294 seconds to synchronously load lazily loaded font '../../../Engine/Content/Slate/Fonts/Roboto-Bold.ttf' (160K)
[2019.08.12-20.10.35:897][  0]LogSlate: Took 0.000206 seconds to synchronously load lazily loaded font '../../../Engine/Content/Editor/Slate/Fonts/FontAwesome.ttf' (139K)
[2019.08.12-20.10.35:990][  0]LogRenderer: Reallocating scene render targets to support 1208x572 Format 10 NumSamples 1 (Frame:1).
[2019.08.12-20.10.36:153][  0]LogContentBrowser: Native class hierarchy updated for 'HierarchicalLODOutliner' in 0.0005 seconds. Added 0 classes and 0 folders.
[2019.08.12-20.10.36:153][  0]LogLoad: (Engine Initialization) Total time: 13.40 seconds
[2019.08.12-20.10.36:153][  0]LogLoad: (Engine Initialization) Total Blueprint compile time: 0.00 seconds
[2019.08.12-20.10.36:163][  0]LogWindowsTextInputMethodSystem: Display: IME system now deactivated.
[2019.08.12-20.10.36:213][  0]LogContentStreaming: Texture pool size now 1000 MB
[2019.08.12-20.10.36:252][  0]LogSlate: Took 0.000303 seconds to synchronously load lazily loaded font '../../../Engine/Content/Slate/Fonts/Roboto-Light.ttf' (167K)
[2019.08.12-20.10.36:280][  1]LogAssetRegistry: Asset discovery search completed in 8.0245 seconds
[2019.08.12-20.10.36:283][  1]LogCollectionManager: Rebuilt the object cache for 0 collections in 0.000000 seconds (found 0 objects)
[2019.08.12-20.10.36:283][  1]LogCollectionManager: Fixed up redirectors for 0 collections in 0.000048 seconds (updated 0 objects)
[2019.08.12-20.10.40:941][530]LogSlate: FSceneViewport::OnFocusLost() reason 0
[2019.08.12-20.10.42:994][647]LogLinker: Warning: CreateExport: Failed to load Parent for BlueprintGeneratedClass /Game/MyAsset/Weapon/BP_RocketProjectile.BP_RocketProjectile_C
[2019.08.12-20.10.42:994][647]LogLinker: Warning: CreateExport: Failed to load Parent for BlueprintGeneratedClass /Game/MyAsset/Weapon/BP_RocketProjectile.BP_RocketProjectile_C
[2019.08.12-20.10.42:994][647]LogLinker: Warning: Unable to load Default__BP_RocketProjectile_C with outer Package /Game/MyAsset/Weapon/BP_RocketProjectile because its class does not exist
[2019.08.12-20.10.42:995][647]LogLinker: Warning: CreateExport: Failed to load Parent for BlueprintGeneratedClass /Game/MyAsset/Weapon/BP_RocketProjectile.BP_RocketProjectile_C
[2019.08.12-20.10.42:995][647]LogLinker: Warning: CreateExport: Failed to load Parent for BlueprintGeneratedClass /Game/MyAsset/Weapon/BP_RocketProjectile.BP_RocketProjectile_C
[2019.08.12-20.10.43:003][647]LogLinker: Warning: CreateExport: Failed to load Parent for BlueprintGeneratedClass /Game/MyAsset/Weapon/BP_RocketWeapon.BP_RocketWeapon_C
[2019.08.12-20.10.43:003][647]LogLinker: Warning: CreateExport: Failed to load Parent for BlueprintGeneratedClass /Game/MyAsset/Weapon/BP_RocketWeapon.BP_RocketWeapon_C
[2019.08.12-20.10.43:003][647]LogLinker: Warning: Unable to load Default__BP_RocketWeapon_C with outer Package /Game/MyAsset/Weapon/BP_RocketWeapon because its class does not exist
[2019.08.12-20.10.43:003][647]LogLinker: Warning: CreateExport: Failed to load Parent for BlueprintGeneratedClass /Game/MyAsset/Weapon/BP_RocketWeapon.BP_RocketWeapon_C
[2019.08.12-20.10.43:003][647]LogLinker: Warning: CreateExport: Failed to load Parent for BlueprintGeneratedClass /Game/MyAsset/Weapon/BP_RocketWeapon.BP_RocketWeapon_C
[2019.08.12-20.10.43:010][647]LogLinker: Warning: CreateExport: Failed to load Parent for BlueprintGeneratedClass /Game/MyAsset/Weapon/BP_RocketWeapon.BP_RocketWeapon_C
[2019.08.12-20.10.43:010][647]LogLinker: Warning: CreateExport: Failed to load Parent for BlueprintGeneratedClass /Game/MyAsset/Weapon/BP_RocketWeapon.BP_RocketWeapon_C
[2019.08.12-20.10.43:011][647]LogLinker: Warning: CreateExport: Failed to load Parent for BlueprintGeneratedClass /Game/MyAsset/Weapon/BP_RocketProjectile.BP_RocketProjectile_C
[2019.08.12-20.10.43:011][647]LogLinker: Warning: CreateExport: Failed to load Parent for BlueprintGeneratedClass /Game/MyAsset/Weapon/BP_RocketProjectile.BP_RocketProjectile_C
[2019.08.12-20.10.43:084][647]LogBlueprint: Warning: Node '/Game/SciFiWeapDark/Sound/GrenadeLauncher/GrenadeLauncher_Reload_Cue.GrenadeLauncher_Reload_Cue:SoundCueGraph_28.SoundCueGraphNode_29' missing NodeGuid because of upgrade from old package version, this can cause deterministic cooking issues please resave package.
[2019.08.12-20.10.43:084][647]LogBlueprint: Warning: Node '/Game/SciFiWeapDark/Sound/GrenadeLauncher/GrenadeLauncher_Reload_Cue.GrenadeLauncher_Reload_Cue:SoundCueGraph_28.SoundCueGraphNode_30' missing NodeGuid because of upgrade from old package version, this can cause deterministic cooking issues please resave package.
[2019.08.12-20.10.43:084][647]LogBlueprint: Warning: Node '/Game/SciFiWeapDark/Sound/GrenadeLauncher/GrenadeLauncher_Reload_Cue.GrenadeLauncher_Reload_Cue:SoundCueGraph_28.SoundCueGraphNode_31' missing NodeGuid because of upgrade from old package version, this can cause deterministic cooking issues please resave package.
[2019.08.12-20.10.43:085][647]LogBlueprint: Warning: Node '/Game/SciFiWeapDark/Sound/GrenadeLauncher/GrenadeLauncher_Reload_Cue.GrenadeLauncher_Reload_Cue:SoundCueGraph_28.SoundCueGraphNode_32' missing NodeGuid because of upgrade from old package version, this can cause deterministic cooking issues please resave package.
[2019.08.12-20.10.43:085][647]LogBlueprint: Warning: Node '/Game/SciFiWeapDark/Sound/GrenadeLauncher/GrenadeLauncher_Reload_Cue.GrenadeLauncher_Reload_Cue:SoundCueGraph_28.SoundCueGraphNode_Root_28' missing NodeGuid because of upgrade from old package version, this can cause deterministic cooking issues please resave package.
[2019.08.12-20.10.43:119][647]LogSlate: Took 0.000307 seconds to synchronously load lazily loaded font '../../../Engine/Content/Slate/Fonts/Roboto-Light.ttf' (167K)
[2019.08.12-20.10.43:130][647]LogAssetEditorManager: Opening Asset editor for Blueprint /Game/MyAsset/Weapon/BP_RocketWeapon.BP_RocketWeapon
[2019.08.12-20.10.46:464][647]LogSlate: Window 'Message' being destroyed
[2019.08.12-20.10.46:859][647]LogContentBrowser: Native class hierarchy updated for 'BlueprintGraph' in 0.0009 seconds. Added 121 classes and 0 folders.
[2019.08.12-20.10.47:409][647]LogOutputDevice: Warning: 

Script Stack (0 frames):

[2019.08.12-20.10.47:595][647]LogStats: FPlatformStackWalk::StackWalkAndDump -  0.185 s
[2019.08.12-20.10.47:595][647]LogOutputDevice: Error: === Handled ensure: ===
[2019.08.12-20.10.47:595][647]LogOutputDevice: Error: 
[2019.08.12-20.10.47:595][647]LogOutputDevice: Error: Ensure condition failed: BpClass != nullptr [File:D:\Build\++UE4\Sync\Engine\Source\Editor\BlueprintGraph\Private\BlueprintActionFilter.cpp] [Line: 632]
[2019.08.12-20.10.47:595][647]LogOutputDevice: Error: Unable to resolve IsEventUnimplementable() - Blueprint (BP_RocketWeapon) missing an authoratative class (skel: [NULL], generated: [NULL], parent: [NULL])
[2019.08.12-20.10.47:595][647]LogOutputDevice: Error: Stack: 
[2019.08.12-20.10.47:595][647]LogOutputDevice: Error: [Callstack] 0x00007ff8037a2e2b UE4Editor-BlueprintGraph.dll!UnknownFunction []
[2019.08.12-20.10.47:595][647]LogOutputDevice: Error: [Callstack] 0x00007ff803604efe UE4Editor-BlueprintGraph.dll!UnknownFunction []
[2019.08.12-20.10.47:595][647]LogOutputDevice: Error: [Callstack] 0x00007ff803605882 UE4Editor-BlueprintGraph.dll!UnknownFunction []
[2019.08.12-20.10.47:595][647]LogOutputDevice: Error: [Callstack] 0x00007ff8036056fb UE4Editor-BlueprintGraph.dll!UnknownFunction []
[2019.08.12-20.10.47:595][647]LogOutputDevice: Error: [Callstack] 0x00007ff801d5063f UE4Editor-Kismet.dll!UnknownFunction []
[2019.08.12-20.10.47:595][647]LogOutputDevice: Error: [Callstack] 0x00007ff801d71ff8 UE4Editor-Kismet.dll!UnknownFunction []
[2019.08.12-20.10.47:595][647]LogOutputDevice: Error: [Callstack] 0x00007ff801d50c9e UE4Editor-Kismet.dll!UnknownFunction []
[2019.08.12-20.10.47:595][647]LogOutputDevice: Error: [Callstack] 0x00007ff801fa6bd8 UE4Editor-Kismet.dll!UnknownFunction []
[2019.08.12-20.10.47:595][647]LogOutputDevice: Error: [Callstack] 0x00007ff801fe7639 UE4Editor-Kismet.dll!UnknownFunction []
[2019.08.12-20.10.47:595][647]LogOutputDevice: Error: [Callstack] 0x00007ff8027454cf UE4Editor-GraphEditor.dll!UnknownFunction []
[2019.08.12-20.10.47:595][647]LogOutputDevice: Error: [Callstack] 0x00007ff80265e4d9 UE4Editor-GraphEditor.dll!UnknownFunction []
[2019.08.12-20.10.47:595][647]LogOutputDevice: Error: [Callstack] 0x00007ff801fbbbb8 UE4Editor-Kismet.dll!UnknownFunction []
[2019.08.12-20.10.47:595][647]LogOutputDevice: Error: [Callstack] 0x00007ff801fb7554 UE4Editor-Kismet.dll!UnknownFunction []
[2019.08.12-20.10.47:595][647]LogOutputDevice: Error: [Callstack] 0x00007ff801f917b9 UE4Editor-Kismet.dll!UnknownFunction []
[2019.08.12-20.10.47:595][647]LogOutputDevice: Error: [Callstack] 0x00007ff801fb7a74 UE4Editor-Kismet.dll!UnknownFunction []
[2019.08.12-20.10.47:595][647]LogOutputDevice: Error: [Callstack] 0x00007ff801dd6768 UE4Editor-Kismet.dll!UnknownFunction []
[2019.08.12-20.10.47:595][647]LogOutputDevice: Error: [Callstack] 0x00007ff801dcdae6 UE4Editor-Kismet.dll!UnknownFunction []
[2019.08.12-20.10.47:595][647]LogOutputDevice: Error: [Callstack] 0x00007ff801df9cf8 UE4Editor-Kismet.dll!UnknownFunction []
[2019.08.12-20.10.47:595][647]LogOutputDevice: Error: [Callstack] 0x00007ff801dd15ed UE4Editor-Kismet.dll!UnknownFunction []
[2019.08.12-20.10.47:595][647]LogOutputDevice: Error: [Callstack] 0x00007fffeafd44d2 UE4Editor-AssetTools.dll!UnknownFunction []
[2019.08.12-20.10.47:595][647]LogOutputDevice: Error: [Callstack] 0x00007ff805847b09 UE4Editor-UnrealEd.dll!UnknownFunction []
[2019.08.12-20.10.47:595][647]LogOutputDevice: Error: [Callstack] 0x00007fffeaf572ae UE4Editor-AssetTools.dll!UnknownFunction []
[2019.08.12-20.10.47:595][647]LogOutputDevice: Error: [Callstack] 0x00007fffe9f230aa UE4Editor-ContentBrowser.dll!UnknownFunction []
[2019.08.12-20.10.47:595][647]LogOutputDevice: Error: [Callstack] 0x00007fffe9ee0ad9 UE4Editor-ContentBrowser.dll!UnknownFunction []
[2019.08.12-20.10.47:595][647]LogOutputDevice: Error: [Callstack] 0x00007fffe9f2b2fc UE4Editor-ContentBrowser.dll!UnknownFunction []
[2019.08.12-20.10.47:595][647]LogOutputDevice: Error: [Callstack] 0x00007fffe9ede70a UE4Editor-ContentBrowser.dll!UnknownFunction []
[2019.08.12-20.10.47:595][647]LogOutputDevice: Error: [Callstack] 0x00007fffe9edae10 UE4Editor-ContentBrowser.dll!UnknownFunction []
[2019.08.12-20.10.47:595][647]LogOutputDevice: Error: [Callstack] 0x00007fffe9f34e80 UE4Editor-ContentBrowser.dll!UnknownFunction []
[2019.08.12-20.10.47:595][647]LogOutputDevice: Error: [Callstack] 0x00007fffe9f2b66f UE4Editor-ContentBrowser.dll!UnknownFunction []
[2019.08.12-20.10.47:595][647]LogOutputDevice: Error: [Callstack] 0x00007ff8069b35ea UE4Editor-Slate.dll!UnknownFunction []
[2019.08.12-20.10.47:595][647]LogOutputDevice: Error: [Callstack] 0x00007ff806a2e49e UE4Editor-Slate.dll!UnknownFunction []
[2019.08.12-20.10.47:596][647]LogOutputDevice: Error: [Callstack] 0x00007ff806a19d89 UE4Editor-Slate.dll!UnknownFunction []
[2019.08.12-20.10.47:596][647]LogOutputDevice: Error: [Callstack] 0x00007ff806a0fd42 UE4Editor-Slate.dll!UnknownFunction []
[2019.08.12-20.10.47:596][647]LogOutputDevice: Error: [Callstack] 0x00007ff84f96b88c UE4Editor-ApplicationCore.dll!UnknownFunction []
[2019.08.12-20.10.47:596][647]LogOutputDevice: Error: [Callstack] 0x00007ff84f95ef9f UE4Editor-ApplicationCore.dll!UnknownFunction []
[2019.08.12-20.10.47:596][647]LogOutputDevice: Error: [Callstack] 0x00007ff84f96d77f UE4Editor-ApplicationCore.dll!UnknownFunction []
[2019.08.12-20.10.47:596][647]LogOutputDevice: Error: [Callstack] 0x00007ff84f95c090 UE4Editor-ApplicationCore.dll!UnknownFunction []
[2019.08.12-20.10.47:596][647]LogOutputDevice: Error: [Callstack] 0x00007ff85db36d41 USER32.dll!UnknownFunction []
[2019.08.12-20.10.47:596][647]LogOutputDevice: Error: [Callstack] 0x00007ff85db36713 USER32.dll!UnknownFunction []
[2019.08.12-20.10.47:596][647]LogOutputDevice: Error: [Callstack] 0x00007ff84f96e946 UE4Editor-ApplicationCore.dll!UnknownFunction []
[2019.08.12-20.10.47:596][647]LogOutputDevice: Error: [Callstack] 0x00007ff795275d3e UE4Editor.exe!UnknownFunction []
[2019.08.12-20.10.47:596][647]LogOutputDevice: Error: [Callstack] 0x00007ff79528554c UE4Editor.exe!UnknownFunction []
[2019.08.12-20.10.47:596][647]LogOutputDevice: Error: [Callstack] 0x00007ff7952855ca UE4Editor.exe!UnknownFunction []
[2019.08.12-20.10.47:596][647]LogOutputDevice: Error: [Callstack] 0x00007ff79529316c UE4Editor.exe!UnknownFunction []
[2019.08.12-20.10.47:596][647]LogOutputDevice: Error: [Callstack] 0x00007ff795295b8e UE4Editor.exe!UnknownFunction []
[2019.08.12-20.10.47:596][647]LogOutputDevice: Error: [Callstack] 0x00007ff85f704034 KERNEL32.DLL!UnknownFunction []
[2019.08.12-20.10.47:596][647]LogOutputDevice: Error: [Callstack] 0x00007ff85ff63691 ntdll.dll!UnknownFunction []
[2019.08.12-20.10.47:596][647]LogOutputDevice: Error: 
[2019.08.12-20.10.47:600][647]LogStats:                SubmitErrorReport -  0.000 s
[2019.08.12-20.10.48:155][647]LogStats:                    SendNewReport -  0.556 s
[2019.08.12-20.10.48:155][647]LogStats:             FDebug::EnsureFailed -  0.746 s
[2019.08.12-20.10.48:158][647]LogOutputDevice: Warning: 

Script Stack (0 frames):

[2019.08.12-20.10.48:160][647]LogStats: FPlatformStackWalk::StackWalkAndDump -  0.002 s
[2019.08.12-20.10.48:160][647]LogOutputDevice: Error: === Handled ensure: ===
[2019.08.12-20.10.48:160][647]LogOutputDevice: Error: 
[2019.08.12-20.10.48:160][647]LogOutputDevice: Error: Ensure condition failed: BpClass != nullptr [File:D:\Build\++UE4\Sync\Engine\Source\Editor\BlueprintGraph\Private\BlueprintActionFilter.cpp] [Line: 731]
[2019.08.12-20.10.48:160][647]LogOutputDevice: Error: Unable to resolve IsFieldInaccessible() - Blueprint (BP_RocketWeapon) missing an authoratative class (skel: [NULL], generated: [NULL], parent: [NULL])
[2019.08.12-20.10.48:160][647]LogOutputDevice: Error: Stack: 
[2019.08.12-20.10.48:160][647]LogOutputDevice: Error: [Callstack] 0x00007ff8037a287b UE4Editor-BlueprintGraph.dll!UnknownFunction []
[2019.08.12-20.10.48:160][647]LogOutputDevice: Error: [Callstack] 0x00007ff80360561a UE4Editor-BlueprintGraph.dll!UnknownFunction []
[2019.08.12-20.10.48:160][647]LogOutputDevice: Error: [Callstack] 0x00007ff803605882 UE4Editor-BlueprintGraph.dll!UnknownFunction []
[2019.08.12-20.10.48:160][647]LogOutputDevice: Error: [Callstack] 0x00007ff8036056fb UE4Editor-BlueprintGraph.dll!UnknownFunction []
[2019.08.12-20.10.48:160][647]LogOutputDevice: Error: [Callstack] 0x00007ff801d5063f UE4Editor-Kismet.dll!UnknownFunction []
[2019.08.12-20.10.48:160][647]LogOutputDevice: Error: [Callstack] 0x00007ff801d71ff8 UE4Editor-Kismet.dll!UnknownFunction []
[2019.08.12-20.10.48:160][647]LogOutputDevice: Error: [Callstack] 0x00007ff801d50c9e UE4Editor-Kismet.dll!UnknownFunction []
[2019.08.12-20.10.48:160][647]LogOutputDevice: Error: [Callstack] 0x00007ff801fa6bd8 UE4Editor-Kismet.dll!UnknownFunction []
[2019.08.12-20.10.48:160][647]LogOutputDevice: Error: [Callstack] 0x00007ff801fe7639 UE4Editor-Kismet.dll!UnknownFunction []
[2019.08.12-20.10.48:160][647]LogOutputDevice: Error: [Callstack] 0x00007ff8027454cf UE4Editor-GraphEditor.dll!UnknownFunction []
[2019.08.12-20.10.48:160][647]LogOutputDevice: Error: [Callstack] 0x00007ff80265e4d9 UE4Editor-GraphEditor.dll!UnknownFunction []
[2019.08.12-20.10.48:160][647]LogOutputDevice: Error: [Callstack] 0x00007ff801fbbbb8 UE4Editor-Kismet.dll!UnknownFunction []
[2019.08.12-20.10.48:160][647]LogOutputDevice: Error: [Callstack] 0x00007ff801fb7554 UE4Editor-Kismet.dll!UnknownFunction []
[2019.08.12-20.10.48:160][647]LogOutputDevice: Error: [Callstack] 0x00007ff801f917b9 UE4Editor-Kismet.dll!UnknownFunction []
[2019.08.12-20.10.48:160][647]LogOutputDevice: Error: [Callstack] 0x00007ff801fb7a74 UE4Editor-Kismet.dll!UnknownFunction []
[2019.08.12-20.10.48:160][647]LogOutputDevice: Error: [Callstack] 0x00007ff801dd6768 UE4Editor-Kismet.dll!UnknownFunction []
[2019.08.12-20.10.48:160][647]LogOutputDevice: Error: [Callstack] 0x00007ff801dcdae6 UE4Editor-Kismet.dll!UnknownFunction []
[2019.08.12-20.10.48:160][647]LogOutputDevice: Error: [Callstack] 0x00007ff801df9cf8 UE4Editor-Kismet.dll!UnknownFunction []
[2019.08.12-20.10.48:160][647]LogOutputDevice: Error: [Callstack] 0x00007ff801dd15ed UE4Editor-Kismet.dll!UnknownFunction []
[2019.08.12-20.10.48:160][647]LogOutputDevice: Error: [Callstack] 0x00007fffeafd44d2 UE4Editor-AssetTools.dll!UnknownFunction []
[2019.08.12-20.10.48:160][647]LogOutputDevice: Error: [Callstack] 0x00007ff805847b09 UE4Editor-UnrealEd.dll!UnknownFunction []
[2019.08.12-20.10.48:160][647]LogOutputDevice: Error: [Callstack] 0x00007fffeaf572ae UE4Editor-AssetTools.dll!UnknownFunction []
[2019.08.12-20.10.48:160][647]LogOutputDevice: Error: [Callstack] 0x00007fffe9f230aa UE4Editor-ContentBrowser.dll!UnknownFunction []
[2019.08.12-20.10.48:160][647]LogOutputDevice: Error: [Callstack] 0x00007fffe9ee0ad9 UE4Editor-ContentBrowser.dll!UnknownFunction []
[2019.08.12-20.10.48:160][647]LogOutputDevice: Error: [Callstack] 0x00007fffe9f2b2fc UE4Editor-ContentBrowser.dll!UnknownFunction []
[2019.08.12-20.10.48:160][647]LogOutputDevice: Error: [Callstack] 0x00007fffe9ede70a UE4Editor-ContentBrowser.dll!UnknownFunction []
[2019.08.12-20.10.48:160][647]LogOutputDevice: Error: [Callstack] 0x00007fffe9edae10 UE4Editor-ContentBrowser.dll!UnknownFunction []
[2019.08.12-20.10.48:160][647]LogOutputDevice: Error: [Callstack] 0x00007fffe9f34e80 UE4Editor-ContentBrowser.dll!UnknownFunction []
[2019.08.12-20.10.48:160][647]LogOutputDevice: Error: [Callstack] 0x00007fffe9f2b66f UE4Editor-ContentBrowser.dll!UnknownFunction []
[2019.08.12-20.10.48:161][647]LogOutputDevice: Error: [Callstack] 0x00007ff8069b35ea UE4Editor-Slate.dll!UnknownFunction []
[2019.08.12-20.10.48:161][647]LogOutputDevice: Error: [Callstack] 0x00007ff806a2e49e UE4Editor-Slate.dll!UnknownFunction []
[2019.08.12-20.10.48:161][647]LogOutputDevice: Error: [Callstack] 0x00007ff806a19d89 UE4Editor-Slate.dll!UnknownFunction []
[2019.08.12-20.10.48:161][647]LogOutputDevice: Error: [Callstack] 0x00007ff806a0fd42 UE4Editor-Slate.dll!UnknownFunction []
[2019.08.12-20.10.48:161][647]LogOutputDevice: Error: [Callstack] 0x00007ff84f96b88c UE4Editor-ApplicationCore.dll!UnknownFunction []
[2019.08.12-20.10.48:161][647]LogOutputDevice: Error: [Callstack] 0x00007ff84f95ef9f UE4Editor-ApplicationCore.dll!UnknownFunction []
[2019.08.12-20.10.48:161][647]LogOutputDevice: Error: [Callstack] 0x00007ff84f96d77f UE4Editor-ApplicationCore.dll!UnknownFunction []
[2019.08.12-20.10.48:161][647]LogOutputDevice: Error: [Callstack] 0x00007ff84f95c090 UE4Editor-ApplicationCore.dll!UnknownFunction []
[2019.08.12-20.10.48:161][647]LogOutputDevice: Error: [Callstack] 0x00007ff85db36d41 USER32.dll!UnknownFunction []
[2019.08.12-20.10.48:161][647]LogOutputDevice: Error: [Callstack] 0x00007ff85db36713 USER32.dll!UnknownFunction []
[2019.08.12-20.10.48:161][647]LogOutputDevice: Error: [Callstack] 0x00007ff84f96e946 UE4Editor-ApplicationCore.dll!UnknownFunction []
[2019.08.12-20.10.48:161][647]LogOutputDevice: Error: [Callstack] 0x00007ff795275d3e UE4Editor.exe!UnknownFunction []
[2019.08.12-20.10.48:161][647]LogOutputDevice: Error: [Callstack] 0x00007ff79528554c UE4Editor.exe!UnknownFunction []
[2019.08.12-20.10.48:161][647]LogOutputDevice: Error: [Callstack] 0x00007ff7952855ca UE4Editor.exe!UnknownFunction []
[2019.08.12-20.10.48:161][647]LogOutputDevice: Error: [Callstack] 0x00007ff79529316c UE4Editor.exe!UnknownFunction []
[2019.08.12-20.10.48:161][647]LogOutputDevice: Error: [Callstack] 0x00007ff795295b8e UE4Editor.exe!UnknownFunction []
[2019.08.12-20.10.48:161][647]LogOutputDevice: Error: [Callstack] 0x00007ff85f704034 KERNEL32.DLL!UnknownFunction []
[2019.08.12-20.10.48:161][647]LogOutputDevice: Error: [Callstack] 0x00007ff85ff63691 ntdll.dll!UnknownFunction []
[2019.08.12-20.10.48:161][647]LogOutputDevice: Error: 
[2019.08.12-20.10.48:168][647]LogStats:                SubmitErrorReport -  0.000 s
